# Blender MTL File: 'PruittIgoe.blend'
# Material Count: 34

newmtl SVGMat.001
Ns 94.117647
Ka 1.000000 1.000000 1.000000
Kd 0.800000 0.533333 0.269804
Ks 0.500000 0.500000 0.500000
Ke 0.000000 0.000000 0.000000
Ni 1.000000
d 1.000000
illum 2

newmtl SVGMat.002
Ns 94.117647
Ka 1.000000 1.000000 1.000000
Kd 0.800000 0.533333 0.269804
Ks 0.500000 0.500000 0.500000
Ke 0.000000 0.000000 0.000000
Ni 1.000000
d 1.000000
illum 2

newmtl SVGMat.003
Ns 94.117647
Ka 1.000000 1.000000 1.000000
Kd 0.800000 0.533333 0.269804
Ks 0.500000 0.500000 0.500000
Ke 0.000000 0.000000 0.000000
Ni 1.000000
d 1.000000
illum 2

newmtl SVGMat.004
Ns 94.117647
Ka 1.000000 1.000000 1.000000
Kd 0.800000 0.533333 0.269804
Ks 0.500000 0.500000 0.500000
Ke 0.000000 0.000000 0.000000
Ni 1.000000
d 1.000000
illum 2

newmtl SVGMat.005
Ns 94.117647
Ka 1.000000 1.000000 1.000000
Kd 0.800000 0.533333 0.269804
Ks 0.500000 0.500000 0.500000
Ke 0.000000 0.000000 0.000000
Ni 1.000000
d 1.000000
illum 2

newmtl SVGMat.006
Ns 94.117647
Ka 1.000000 1.000000 1.000000
Kd 0.800000 0.533333 0.269804
Ks 0.500000 0.500000 0.500000
Ke 0.000000 0.000000 0.000000
Ni 1.000000
d 1.000000
illum 2

newmtl SVGMat.007
Ns 94.117647
Ka 1.000000 1.000000 1.000000
Kd 0.800000 0.533333 0.269804
Ks 0.500000 0.500000 0.500000
Ke 0.000000 0.000000 0.000000
Ni 1.000000
d 1.000000
illum 2

newmtl SVGMat.008
Ns 94.117647
Ka 1.000000 1.000000 1.000000
Kd 0.533333 0.533333 0.533333
Ks 0.500000 0.500000 0.500000
Ke 0.000000 0.000000 0.000000
Ni 1.000000
d 1.000000
illum 2

newmtl SVGMat.009
Ns 94.117647
Ka 1.000000 1.000000 1.000000
Kd 0.800000 0.533333 0.269804
Ks 0.500000 0.500000 0.500000
Ke 0.000000 0.000000 0.000000
Ni 1.000000
d 1.000000
illum 2

newmtl SVGMat.010
Ns 94.117647
Ka 1.000000 1.000000 1.000000
Kd 0.800000 0.533333 0.269804
Ks 0.500000 0.500000 0.500000
Ke 0.000000 0.000000 0.000000
Ni 1.000000
d 1.000000
illum 2

newmtl SVGMat.011
Ns 94.117647
Ka 1.000000 1.000000 1.000000
Kd 0.800000 0.533333 0.269804
Ks 0.500000 0.500000 0.500000
Ke 0.000000 0.000000 0.000000
Ni 1.000000
d 1.000000
illum 2

newmtl SVGMat.012
Ns 94.117647
Ka 1.000000 1.000000 1.000000
Kd 0.800000 0.533333 0.269804
Ks 0.500000 0.500000 0.500000
Ke 0.000000 0.000000 0.000000
Ni 1.000000
d 1.000000
illum 2

newmtl SVGMat.013
Ns 94.117647
Ka 1.000000 1.000000 1.000000
Kd 0.800000 0.533333 0.269804
Ks 0.500000 0.500000 0.500000
Ke 0.000000 0.000000 0.000000
Ni 1.000000
d 1.000000
illum 2

newmtl SVGMat.014
Ns 94.117647
Ka 1.000000 1.000000 1.000000
Kd 0.800000 0.533333 0.269804
Ks 0.500000 0.500000 0.500000
Ke 0.000000 0.000000 0.000000
Ni 1.000000
d 1.000000
illum 2

newmtl SVGMat.015
Ns 94.117647
Ka 1.000000 1.000000 1.000000
Kd 0.800000 0.533333 0.269804
Ks 0.500000 0.500000 0.500000
Ke 0.000000 0.000000 0.000000
Ni 1.000000
d 1.000000
illum 2

newmtl SVGMat.016
Ns 94.117647
Ka 1.000000 1.000000 1.000000
Kd 0.800000 0.533333 0.269804
Ks 0.500000 0.500000 0.500000
Ke 0.000000 0.000000 0.000000
Ni 1.000000
d 1.000000
illum 2

newmtl SVGMat.017
Ns 94.117647
Ka 1.000000 1.000000 1.000000
Kd 0.800000 0.533333 0.269804
Ks 0.500000 0.500000 0.500000
Ke 0.000000 0.000000 0.000000
Ni 1.000000
d 1.000000
illum 2

newmtl SVGMat.018
Ns 94.117647
Ka 1.000000 1.000000 1.000000
Kd 0.800000 0.533333 0.269804
Ks 0.500000 0.500000 0.500000
Ke 0.000000 0.000000 0.000000
Ni 1.000000
d 1.000000
illum 2

newmtl SVGMat.019
Ns 94.117647
Ka 1.000000 1.000000 1.000000
Kd 0.800000 0.533333 0.269804
Ks 0.500000 0.500000 0.500000
Ke 0.000000 0.000000 0.000000
Ni 1.000000
d 1.000000
illum 2

newmtl SVGMat.020
Ns 94.117647
Ka 1.000000 1.000000 1.000000
Kd 0.800000 0.533333 0.269804
Ks 0.500000 0.500000 0.500000
Ke 0.000000 0.000000 0.000000
Ni 1.000000
d 1.000000
illum 2

newmtl SVGMat.021
Ns 94.117647
Ka 1.000000 1.000000 1.000000
Kd 0.800000 0.533333 0.269804
Ks 0.500000 0.500000 0.500000
Ke 0.000000 0.000000 0.000000
Ni 1.000000
d 1.000000
illum 2

newmtl SVGMat.022
Ns 94.117647
Ka 1.000000 1.000000 1.000000
Kd 0.800000 0.533333 0.269804
Ks 0.500000 0.500000 0.500000
Ke 0.000000 0.000000 0.000000
Ni 1.000000
d 1.000000
illum 2

newmtl SVGMat.023
Ns 94.117647
Ka 1.000000 1.000000 1.000000
Kd 0.800000 0.533333 0.269804
Ks 0.500000 0.500000 0.500000
Ke 0.000000 0.000000 0.000000
Ni 1.000000
d 1.000000
illum 2

newmtl SVGMat.024
Ns 94.117647
Ka 1.000000 1.000000 1.000000
Kd 0.800000 0.533333 0.269804
Ks 0.500000 0.500000 0.500000
Ke 0.000000 0.000000 0.000000
Ni 1.000000
d 1.000000
illum 2

newmtl SVGMat.025
Ns 94.117647
Ka 1.000000 1.000000 1.000000
Kd 0.800000 0.533333 0.269804
Ks 0.500000 0.500000 0.500000
Ke 0.000000 0.000000 0.000000
Ni 1.000000
d 1.000000
illum 2

newmtl SVGMat.026
Ns 94.117647
Ka 1.000000 1.000000 1.000000
Kd 0.800000 0.533333 0.269804
Ks 0.500000 0.500000 0.500000
Ke 0.000000 0.000000 0.000000
Ni 1.000000
d 1.000000
illum 2

newmtl SVGMat.027
Ns 94.117647
Ka 1.000000 1.000000 1.000000
Kd 0.800000 0.533333 0.269804
Ks 0.500000 0.500000 0.500000
Ke 0.000000 0.000000 0.000000
Ni 1.000000
d 1.000000
illum 2

newmtl SVGMat.029
Ns 94.117647
Ka 1.000000 1.000000 1.000000
Kd 0.800000 0.533333 0.269804
Ks 0.500000 0.500000 0.500000
Ke 0.000000 0.000000 0.000000
Ni 1.000000
d 1.000000
illum 2

newmtl SVGMat.030
Ns 94.117647
Ka 1.000000 1.000000 1.000000
Kd 0.800000 0.533333 0.269804
Ks 0.500000 0.500000 0.500000
Ke 0.000000 0.000000 0.000000
Ni 1.000000
d 1.000000
illum 2

newmtl SVGMat.031
Ns 94.117647
Ka 1.000000 1.000000 1.000000
Kd 0.800000 0.533333 0.269804
Ks 0.500000 0.500000 0.500000
Ke 0.000000 0.000000 0.000000
Ni 1.000000
d 1.000000
illum 2

newmtl SVGMat.032
Ns 94.117647
Ka 1.000000 1.000000 1.000000
Kd 0.800000 0.533333 0.269804
Ks 0.500000 0.500000 0.500000
Ke 0.000000 0.000000 0.000000
Ni 1.000000
d 1.000000
illum 2

newmtl SVGMat.033
Ns 94.117647
Ka 1.000000 1.000000 1.000000
Kd 0.800000 0.533333 0.269804
Ks 0.500000 0.500000 0.500000
Ke 0.000000 0.000000 0.000000
Ni 1.000000
d 1.000000
illum 2

newmtl SVGMat.034
Ns 94.117647
Ka 1.000000 1.000000 1.000000
Kd 0.800000 0.533333 0.269804
Ks 0.500000 0.500000 0.500000
Ke 0.000000 0.000000 0.000000
Ni 1.000000
d 1.000000
illum 2

newmtl SVGMat.035
Ns 94.117647
Ka 1.000000 1.000000 1.000000
Kd 0.800000 0.533333 0.269804
Ks 0.500000 0.500000 0.500000
Ke 0.000000 0.000000 0.000000
Ni 1.000000
d 1.000000
illum 2
