; Engine configuration file.
; It's best edited using the editor UI and not directly,
; since the parameters that go here are not all obvious.
;
; Format:
;   [section] ; section goes between []
;   param=value ; assign values to parameters

config_version=3

[application]

config/name="pruittigoe"
run/main_scene="res://WorldEnvironment.tscn"
config/icon="res://icon.png"

[rendering]

environment/default_clear_color=Color( 0.656723, 0.753906, 0.733407, 1 )
