; Engine configuration file.
; It's best edited using the editor UI and not directly,
; since the parameters that go here are not all obvious.
;
; Format:
;   [section] ; section goes between []
;   param=value ; assign values to parameters

config_version=3

[application]

config/name="experiencia01"
run/main_scene="res://WorldEnvironment.tscn"
config/icon="res://icon.png"

[rendering]

environment/default_clear_color=Color( 1, 0, 0, 1 )
environment/default_environment="res://default_env.tres"
