# Blender v2.78 (sub 0) OBJ File: 'solvalou.blend'
# www.blender.org
mtllib solvalou.mtl
o 1
v -0.799513 -0.327008 -0.429516
v -0.649512 -0.352008 -0.417017
v -0.589512 -0.302008 -0.442016
v -0.639512 -0.252008 -0.467016
v -0.639512 -0.252008 -0.267016
v -0.349512 -0.314508 -0.298266
v -0.349512 -0.302008 -0.442016
v -0.349512 -0.302008 -0.292017
v -0.349512 -0.314508 -0.435766
v -0.589512 -0.302008 -0.292017
v -0.874512 -0.252008 -0.467016
v -0.874512 -0.252008 -0.267016
v -0.799513 -0.327008 -0.304516
v -0.649512 -0.352008 -0.317016
v -1.074512 -0.177008 -0.337016
v -0.774512 -0.277008 -0.397017
v -1.224512 -0.227008 -0.397017
v -0.774512 -0.177008 -0.397017
v -0.774512 -0.177008 -0.337016
v -1.074512 -0.177008 -0.397017
v -1.199512 -0.277008 -0.337016
v -1.224512 -0.227008 -0.337016
v -1.199512 -0.277008 -0.397017
v -0.774512 -0.277008 -0.337016
v -0.679512 -0.332008 -0.367016
v -0.679512 -0.331339 -0.364516
v -0.679512 -0.327008 -0.362016
v -0.679512 -0.324508 -0.371346
v -0.679512 -0.322678 -0.364516
v -1.324512 -0.322008 -0.367016
v -1.324512 -0.329508 -0.371346
v -1.324512 -0.327008 -0.372016
v -0.679512 -0.329508 -0.371346
v -1.324512 -0.332008 -0.367016
v -0.679512 -0.331339 -0.369516
v -1.324512 -0.331339 -0.369516
v -1.324512 -0.331339 -0.364516
v -1.324512 -0.329508 -0.362686
v -0.679512 -0.329508 -0.362686
v -1.324512 -0.327008 -0.362016
v -0.679512 -0.324508 -0.362686
v -1.324512 -0.324508 -0.362686
v -1.324512 -0.322678 -0.364516
v -0.679512 -0.322008 -0.367016
v -0.679512 -0.322678 -0.369516
v -1.324512 -0.322678 -0.369516
v -0.679512 -0.327008 -0.372016
v -1.324512 -0.324508 -0.371346
v -0.374512 -0.152008 -0.437016
v -0.574512 -0.152008 -0.277016
v -0.374512 -0.152008 -0.297016
v -0.374512 -0.139508 -0.437016
v -0.674512 -0.102008 -0.267016
v -0.974512 -0.252008 -0.297016
v -0.674512 -0.252008 -0.267016
v -0.674512 -0.252008 -0.467016
v -0.949512 -0.152008 -0.294516
v -0.574512 -0.152008 -0.457016
v -0.674512 -0.102008 -0.467016
v -0.949512 -0.152008 -0.439517
v -0.974512 -0.252008 -0.437016
v -0.374512 -0.139508 -0.297016
v -0.424513 -0.242008 -0.817016
v -0.424513 -0.242008 -0.707016
v -0.949512 -0.242008 -0.366302
v -0.524512 -0.242008 -0.227016
v -0.424513 -0.242008 0.082983
v -0.524512 -0.252008 0.082983
v -0.524512 -0.252008 -0.027016
v -0.949512 -0.252008 -0.366302
v -0.424513 -0.252008 -0.817016
v -0.524512 -0.242008 0.082983
v -0.424513 -0.252008 0.082983
v -0.524512 -0.242008 -0.027016
v -0.424513 -0.242008 -0.227016
v -0.424513 -0.252008 -0.227016
v -0.424513 -0.242008 -0.507016
v -0.424513 -0.252008 -0.507016
v -0.524512 -0.242008 -0.707016
v -0.524512 -0.252008 -0.817016
v -0.524512 -0.242008 -0.817016
v -0.954512 -0.332008 -0.358356
v -0.954512 -0.337008 -0.367016
v -0.954512 -0.335669 -0.362016
v -0.954512 -0.322008 -0.358356
v -0.954512 -0.318348 -0.362016
v -0.954512 -0.322008 -0.375677
v -0.954512 -0.317008 -0.367016
v -1.074512 -0.322008 -0.358356
v -1.074512 -0.318348 -0.372016
v -1.074512 -0.318348 -0.362016
v -1.074512 -0.332008 -0.375677
v -1.074512 -0.337008 -0.367016
v -1.074512 -0.332008 -0.358356
v -1.074512 -0.327008 -0.377017
v -0.954512 -0.332008 -0.375677
v -0.954512 -0.335669 -0.372016
v -1.074512 -0.335669 -0.372016
v -1.074512 -0.335669 -0.362016
v -1.074512 -0.327008 -0.357016
v -0.954512 -0.327008 -0.357016
v -1.074512 -0.317008 -0.367016
v -0.954512 -0.318348 -0.372016
v -1.074512 -0.322008 -0.375677
v -0.954512 -0.327008 -0.377017
v -0.374512 -0.192008 -0.387017
v -0.474512 -0.182008 -0.384337
v -0.474512 -0.202008 -0.384337
v -0.474512 -0.209329 -0.377017
v -0.474512 -0.212008 -0.367016
v -0.474512 -0.209329 -0.357016
v -0.374512 -0.202008 -0.349696
v -0.474512 -0.192008 -0.347016
v -0.374512 -0.192008 -0.347016
v -0.374512 -0.182008 -0.349696
v -0.474512 -0.182008 -0.349696
v -0.374512 -0.172008 -0.367016
v -0.374512 -0.174688 -0.377017
v -0.374512 -0.177008 -0.392997
v -0.374512 -0.166028 -0.382016
v -0.374512 -0.182008 -0.384337
v -0.374512 -0.202008 -0.384337
v -0.374512 -0.209329 -0.377017
v -0.374512 -0.212008 -0.367016
v -0.374512 -0.222008 -0.367016
v -0.374512 -0.217989 -0.352016
v -0.374512 -0.209329 -0.357016
v -0.374512 -0.166028 -0.352016
v -0.374512 -0.174688 -0.357016
v -0.374512 -0.162008 -0.367016
v -0.274512 -0.140047 -0.397017
v -0.374512 -0.192008 -0.397017
v -0.274512 -0.222008 -0.418978
v -0.374512 -0.207008 -0.392997
v -0.374512 -0.217989 -0.382016
v -0.374512 -0.207008 -0.341036
v -0.374512 -0.192008 -0.337016
v -0.274512 -0.162008 -0.315055
v -0.374512 -0.177008 -0.341036
v -0.274512 -0.140047 -0.337016
v -0.274512 -0.243970 -0.337016
v -0.274512 -0.192008 -0.427016
v -0.274512 -0.243970 -0.397017
v -0.274512 -0.222008 -0.315055
v -0.274512 -0.192008 -0.307016
v -0.274512 -0.162008 -0.418978
v -0.274512 -0.132008 -0.367016
v -0.474512 -0.172008 -0.367016
v -0.474512 -0.174688 -0.357016
v -0.474512 -0.202008 -0.349696
v -0.474512 -0.192008 -0.387017
v -0.474512 -0.174688 -0.377017
v -0.424513 -0.252008 -0.707016
v -0.524512 -0.252008 -0.707016
v -0.524512 -0.252008 -0.507016
v -0.524512 -0.242008 -0.507016
v -0.424513 -0.242008 -0.027016
v -0.524512 -0.252008 -0.227016
v -0.424513 -0.252008 -0.027016
v -0.571810 -0.252008 -0.757016
v -0.371810 -0.052008 -0.757016
v -0.471810 -0.452008 -0.767016
v -0.371810 -0.452008 -0.767016
v -0.371810 -0.402008 -0.767016
v -0.396810 -0.402008 -0.767016
v -0.421810 -0.252008 -0.767016
v -0.396810 -0.102008 -0.767016
v -0.471810 -0.052008 -0.767016
v -0.471810 -0.052008 -0.757016
v -0.571810 -0.252008 -0.767016
v -0.371810 -0.452008 -0.757016
v -0.471810 -0.452008 -0.757016
v -0.371810 -0.402008 -0.757016
v -0.396810 -0.402008 -0.757016
v -0.421810 -0.252008 -0.757016
v -0.396810 -0.102008 -0.757016
v -0.371810 -0.102008 -0.757016
v -0.371810 -0.102008 -0.767016
v -0.371810 -0.052008 -0.767016
v -0.421810 -0.252008 0.032984
v -0.371810 -0.402008 0.032984
v -0.371810 -0.452008 0.032984
v -0.571810 -0.252008 0.032984
v -0.371810 -0.402008 0.022984
v -0.571810 -0.252008 0.022984
v -0.421810 -0.252008 0.022984
v -0.371810 -0.102008 0.022984
v -0.471810 -0.052008 0.022984
v -0.471810 -0.452008 0.022984
v -0.471810 -0.452008 0.032984
v -0.371810 -0.452008 0.022984
v -0.396810 -0.402008 0.022984
v -0.396810 -0.402008 0.032984
v -0.396810 -0.102008 0.032984
v -0.396810 -0.102008 0.022984
v -0.371810 -0.102008 0.032984
v -0.371810 -0.052008 0.032984
v -0.371810 -0.052008 0.022984
v -0.471810 -0.052008 0.032984
v -0.474512 -0.297008 -0.375677
v -0.474512 -0.297008 -0.358356
v -0.474512 -0.292008 -0.367016
v -0.474512 -0.307008 -0.358356
v -0.474512 -0.312008 -0.367016
v -0.274512 -0.277008 -0.323715
v -0.274512 -0.252008 -0.367016
v -0.274512 -0.302008 -0.417017
v -0.274512 -0.327008 -0.410318
v -0.274512 -0.345310 -0.392016
v -0.274512 -0.352008 -0.367016
v -0.374512 -0.302008 -0.387017
v -0.374512 -0.312008 -0.384337
v -0.274512 -0.277008 -0.410318
v -0.274512 -0.258707 -0.392016
v -0.374512 -0.282008 -0.367016
v -0.374512 -0.284688 -0.357016
v -0.274512 -0.258707 -0.342016
v -0.374512 -0.292008 -0.349696
v -0.274512 -0.327008 -0.323715
v -0.274512 -0.302008 -0.317016
v -0.274512 -0.345310 -0.342016
v -0.374512 -0.319329 -0.357016
v -0.374512 -0.322008 -0.367016
v -0.374512 -0.310669 -0.372016
v -0.374512 -0.307008 -0.375677
v -0.374512 -0.292008 -0.384337
v -0.374512 -0.292008 -0.367016
v -0.374512 -0.293348 -0.372016
v -0.374512 -0.284688 -0.377017
v -0.374512 -0.302008 -0.347016
v -0.374512 -0.312008 -0.349696
v -0.374512 -0.302008 -0.357016
v -0.374512 -0.310669 -0.362016
v -0.374512 -0.319329 -0.377017
v -0.374512 -0.312008 -0.367016
v -0.474512 -0.310669 -0.372016
v -0.474512 -0.302008 -0.377017
v -0.474512 -0.307008 -0.375677
v -0.374512 -0.302008 -0.377017
v -0.374512 -0.297008 -0.375677
v -0.474512 -0.293348 -0.372016
v -0.474512 -0.293348 -0.362016
v -0.374512 -0.293348 -0.362016
v -0.374512 -0.297008 -0.358356
v -0.474512 -0.302008 -0.357016
v -0.474512 -0.310669 -0.362016
v -0.374512 -0.307008 -0.358356
vt 0.0000 0.0000
vt 0.0000 0.0000
vt 0.0000 0.0000
vt 0.0000 0.0000
vt 0.0000 0.0000
vt 0.0000 0.0000
vt 0.0000 0.0000
vt 0.0000 0.0000
vt 0.0000 0.0000
vt 0.0000 0.0000
vt 0.0000 0.0000
vt 0.0000 0.0000
vt 0.0000 0.0000
vt 0.0000 0.0000
vt 0.0000 0.0000
vt 0.0000 0.0000
vt 0.0000 0.0000
vt 0.0000 0.0000
vt 0.0000 0.0000
vt 0.0000 0.0000
vt 0.0000 0.0000
vt 0.0000 0.0000
vt 0.0000 0.0000
vt 0.0000 0.0000
vt 0.0000 0.0000
vt 0.0000 0.0000
vt 0.0000 0.0000
vt 0.0000 0.0000
vt 0.0000 0.0000
vt 0.0000 0.0000
vt 0.0000 0.0000
vt 0.0000 0.0000
vt 0.0000 0.0000
vt 0.0000 0.0000
vt 0.0000 0.0000
vt 0.0000 0.0000
vt 0.0000 0.0000
vt 0.0000 0.0000
vt 0.0000 0.0000
vt 0.0000 0.0000
vt 0.0000 0.0000
vt 0.0000 0.0000
vt 0.0000 0.0000
vt 0.0000 0.0000
vt 0.0000 0.0000
vt 0.0000 0.0000
vt 0.0000 0.0000
vt 0.0000 0.0000
vt 0.0000 0.0000
vt 0.0000 0.0000
vt 0.0000 0.0000
vt 0.0000 0.0000
vt 0.0000 0.0000
vt 0.0000 0.0000
vt 0.0000 0.0000
vt 0.0000 0.0000
vt 0.0000 0.0000
vt 0.0000 0.0000
vt 0.0000 0.0000
vt 0.0000 0.0000
vt 0.0000 0.0000
vt 0.0000 0.0000
vt 0.0000 0.0000
vt 0.0000 0.0000
vt 0.0000 0.0000
vt 0.0000 0.0000
vt 0.0000 0.0000
vt 0.0000 0.0000
vt 0.0000 0.0000
vt 0.0000 0.0000
vt 0.0000 0.0000
vt 0.0000 0.0000
vt 0.0000 0.0000
vt 0.0000 0.0000
vt 0.0000 0.0000
vt 0.0000 0.0000
vt 0.0000 0.0000
vt 0.0000 0.0000
vt 0.0000 0.0000
vt 0.0000 0.0000
vt 0.0000 0.0000
vt 0.0000 0.0000
vt 0.0000 0.0000
vt 0.0000 0.0000
vt 0.0000 0.0000
vt 0.0000 0.0000
vt 0.0000 0.0000
vt 0.0000 0.0000
vt 0.0000 0.0000
vt 0.0000 0.0000
vt 0.0000 0.0000
vt 0.0000 0.0000
vt 0.0000 0.0000
vt 0.0000 0.0000
vt 0.0000 0.0000
vt 0.0000 0.0000
vt 0.0000 0.0000
vt 0.0000 0.0000
vt 0.0000 0.0000
vt 0.0000 0.0000
vt 0.0000 0.0000
vt 0.0000 0.0000
vt 0.0000 0.0000
vt 0.0000 0.0000
vt 0.0000 0.0000
vt 0.0000 0.0000
vt 0.0000 0.0000
vt 0.0000 0.0000
vt 0.0000 0.0000
vt 0.0000 0.0000
vt 0.0000 0.0000
vt 0.0000 0.0000
vt 0.0000 0.0000
vt 0.0000 0.0000
vt 0.0000 0.0000
vt 0.0000 0.0000
vt 0.0000 0.0000
vt 0.0000 0.0000
vt 0.0000 0.0000
vt 0.0000 0.0000
vt 0.0000 0.0000
vt 0.0000 0.0000
vt 0.0000 0.0000
vt 0.0000 0.0000
vt 0.0000 0.0000
vt 0.0000 0.0000
vt 0.0000 0.0000
vt 0.0000 0.0000
vt 0.0000 0.0000
vt 0.0000 0.0000
vt 0.0000 0.0000
vt 0.0000 0.0000
vt 0.0000 0.0000
vt 0.0000 0.0000
vt 0.0000 0.0000
vt 0.0000 0.0000
vt 0.0000 0.0000
vt 0.0000 0.0000
vt 0.0000 0.0000
vt 0.0000 0.0000
vt 0.0000 0.0000
vt 0.0000 0.0000
vt 0.0000 0.0000
vt 0.0000 0.0000
vt 0.0000 0.0000
vt 0.0000 0.0000
vt 0.0000 0.0000
vt 0.0000 0.0000
vt 0.0000 0.0000
vt 0.0000 0.0000
vt 0.0000 0.0000
vt 0.0000 0.0000
vt 0.0000 0.0000
vt 0.0000 0.0000
vt 0.0000 0.0000
vt 0.0000 0.0000
vt 0.0000 0.0000
vt 0.0000 0.0000
vt 0.0000 0.0000
vt 0.0000 0.0000
vt 0.0000 0.0000
vt 0.0000 0.0000
vt 0.0000 0.0000
vt 0.0000 0.0000
vt 0.0000 0.0000
vt 0.0000 0.0000
vt 0.0000 0.0000
vt 0.0000 0.0000
vt 0.0000 0.0000
vt 0.0000 0.0000
vt 0.0000 0.0000
vt 0.0000 0.0000
vt 0.0000 0.0000
vt 0.0000 0.0000
vt 0.0000 0.0000
vt 0.0000 0.0000
vt 0.0000 0.0000
vt 0.0000 0.0000
vt 0.0000 0.0000
vt 0.0000 0.0000
vt 0.0000 0.0000
vt 0.0000 0.0000
vt 0.0000 0.0000
vt 0.0000 0.0000
vt 0.0000 0.0000
vt 0.0000 0.0000
vt 0.0000 0.0000
vt 0.0000 0.0000
vt 0.0000 0.0000
vt 0.0000 0.0000
vt 0.0000 0.0000
vt 0.0000 0.0000
vt 0.0000 0.0000
vt 0.0000 0.0000
vt 0.0000 0.0000
vt 0.0000 0.0000
vt 0.0000 0.0000
vt 0.0000 0.0000
vt 0.0000 0.0000
vt 0.0000 0.0000
vt 0.0000 0.0000
vt 0.0000 0.0000
vt 0.0000 0.0000
vt 0.0000 0.0000
vt 0.0000 0.0000
vt 0.0000 0.0000
vt 0.0000 0.0000
vt 0.0000 0.0000
vt 0.0000 0.0000
vt 0.0000 0.0000
vt 0.0000 0.0000
vt 0.0000 0.0000
vt 0.0000 0.0000
vt 0.0000 0.0000
vt 0.0000 0.0000
vt 0.0000 0.0000
vt 0.0000 0.0000
vt 0.0000 0.0000
vt 0.0000 0.0000
vt 0.0000 0.0000
vt 0.0000 0.0000
vt 0.0000 0.0000
vt 0.0000 0.0000
vt 0.0000 0.0000
vt 0.0000 0.0000
vt 0.0000 0.0000
vt 0.0000 0.0000
vt 0.0000 0.0000
vt 0.0000 0.0000
vt 0.0000 0.0000
vt 0.0000 0.0000
vt 0.0000 0.0000
vt 0.0000 0.0000
vt 0.0000 0.0000
vt 0.0000 0.0000
vt 0.0000 0.0000
vt 0.0000 0.0000
vt 0.0000 0.0000
vt 0.0000 0.0000
vt 0.0000 0.0000
vt 0.0000 0.0000
vt 0.0000 0.0000
vt 0.0000 0.0000
vt 0.0000 0.0000
vt 0.0000 0.0000
vt 0.0000 0.0000
vt 0.0000 0.0000
vn -0.0000 -0.4472 -0.8944
vn 0.0000 1.0000 0.0000
vn 0.0000 -0.4472 0.8944
vn 1.0000 0.0000 0.0000
vn 0.7071 0.7071 0.0000
vn -0.7071 -0.7071 0.0000
vn 0.1240 -0.9923 0.0000
vn -0.1644 -0.9864 0.0000
vn 0.0000 0.0000 1.0000
vn 0.0000 0.0000 -1.0000
vn -0.3162 0.9487 0.0000
vn -0.8944 -0.4472 0.0000
vn 0.0000 -1.0000 0.0000
vn 1.0000 -0.0001 0.0000
vn 1.0000 0.0001 0.0000
vn -1.0000 -0.0000 0.0000
vn -1.0000 -0.0001 0.0000
vn -1.0000 0.0001 0.0000
vn 0.0000 -0.2589 -0.9659
vn 0.0000 -0.2588 -0.9659
vn 0.0000 -0.7071 -0.7071
vn 0.0000 -0.9659 -0.2588
vn 0.0000 -0.9659 0.2588
vn 0.0000 -0.7071 0.7071
vn 0.0000 -0.2589 0.9659
vn 0.0000 -0.2588 0.9659
vn 0.0000 0.2588 0.9659
vn 0.0000 0.2589 0.9659
vn 0.0000 0.7071 0.7071
vn 0.0000 0.9659 0.2588
vn 0.0000 0.9659 -0.2588
vn 0.0000 0.7071 -0.7071
vn 0.0000 0.2589 -0.9659
vn 0.0000 0.2588 -0.9659
vn -0.9701 0.2425 0.0000
vn 0.7071 -0.7071 0.0000
vn 0.1240 0.9923 0.0000
vn -0.1789 0.9839 0.0000
vn -0.0995 0.0000 0.9950
vn 0.0995 0.0000 -0.9950
vn -0.0995 0.0000 -0.9950
vn 0.0995 0.0000 0.9950
vn -0.7265 0.0000 0.6872
vn -0.7276 0.0000 -0.6860
vn -0.2783 0.9278 -0.2486
vn -0.2783 0.6792 -0.6792
vn -0.2783 0.2486 -0.9278
vn -0.2783 -0.2486 -0.9278
vn -0.2783 -0.6792 -0.6792
vn -0.2783 -0.9278 -0.2486
vn -0.2783 -0.9278 0.2486
vn -0.2783 -0.6792 0.6792
vn -0.2783 -0.2486 0.9278
vn -0.2783 0.2486 0.9278
vn -0.2783 0.6792 0.6792
vn -0.2783 0.9278 0.2486
vn -0.8944 0.4472 0.0000
vn 0.9864 0.1644 0.0000
vn 0.9864 -0.1644 0.0000
usemtl *GLOBAL*
s off
f 1/1/1 3/2/1 2/3/1
f 3/2/1 9/4/1 2/3/1
f 3/2/1 7/5/1 9/4/1
f 3/2/1 11/6/1 4/7/1
f 3/2/1 1/1/1 11/6/1
f 12/8/2 4/7/2 11/6/2
f 12/8/2 5/9/2 4/7/2
f 6/10/3 8/11/3 10/12/3
f 6/10/3 10/12/3 14/13/3
f 13/14/3 14/13/3 10/12/3
f 12/8/3 10/12/3 5/9/3
f 12/8/3 13/14/3 10/12/3
f 8/11/4 9/4/4 7/5/4
f 8/11/4 6/10/4 9/4/4
f 10/12/2 7/5/2 3/2/2
f 10/12/2 8/11/2 7/5/2
f 5/9/5 3/2/5 4/7/5
f 5/9/5 10/12/5 3/2/5
f 1/1/6 12/8/6 11/6/6
f 1/1/6 13/14/6 12/8/6
f 9/4/7 14/13/7 2/3/7
f 9/4/7 6/10/7 14/13/7
f 14/13/8 1/1/8 2/3/8
f 1/1/8 14/13/8 13/14/8
f 24/15/9 19/16/9 15/17/9
f 22/18/9 24/15/9 15/17/9
f 22/18/9 21/19/9 24/15/9
f 16/20/10 23/21/10 17/22/10
f 20/23/10 16/20/10 17/22/10
f 20/23/10 18/24/10 16/20/10
f 18/24/4 24/15/4 16/20/4
f 18/24/4 19/16/4 24/15/4
f 15/17/2 18/24/2 20/23/2
f 15/17/2 19/16/2 18/24/2
f 22/18/11 20/23/11 17/22/11
f 22/18/11 15/17/11 20/23/11
f 21/19/12 17/22/12 23/21/12
f 21/19/12 22/18/12 17/22/12
f 24/15/13 23/21/13 16/20/13
f 24/15/13 21/19/13 23/21/13
f 39/25/4 35/26/4 33/27/4
f 39/25/4 25/28/4 35/26/4
f 39/25/14 26/29/14 25/28/14
f 27/30/4 39/25/4 33/27/4
f 41/31/4 27/30/4 33/27/4
f 28/32/4 29/33/4 41/31/4
f 28/32/4 44/34/4 29/33/4
f 28/32/15 45/35/15 44/34/15
f 47/36/4 41/31/4 33/27/4
f 47/36/4 28/32/4 41/31/4
f 42/37/16 46/38/16 48/39/16
f 42/37/16 30/40/16 46/38/16
f 42/37/17 43/41/17 30/40/17
f 40/42/18 42/37/18 48/39/18
f 38/43/17 40/42/17 48/39/17
f 31/44/16 37/45/16 38/43/16
f 31/44/16 34/46/16 37/45/16
f 31/44/18 36/47/18 34/46/18
f 32/48/18 38/43/18 48/39/18
f 32/48/17 31/44/17 38/43/17
f 33/27/19 32/48/19 47/36/19
f 33/27/20 31/44/20 32/48/20
f 36/47/21 33/27/21 35/26/21
f 36/47/21 31/44/21 33/27/21
f 34/46/22 35/26/22 25/28/22
f 34/46/22 36/47/22 35/26/22
f 37/45/23 25/28/23 26/29/23
f 37/45/23 34/46/23 25/28/23
f 38/43/24 26/29/24 39/25/24
f 38/43/24 37/45/24 26/29/24
f 40/42/25 39/25/25 27/30/25
f 40/42/26 38/43/26 39/25/26
f 41/31/27 40/42/27 27/30/27
f 41/31/28 42/37/28 40/42/28
f 29/33/29 42/37/29 41/31/29
f 29/33/29 43/41/29 42/37/29
f 44/34/30 43/41/30 29/33/30
f 44/34/30 30/40/30 43/41/30
f 45/35/31 30/40/31 44/34/31
f 45/35/31 46/38/31 30/40/31
f 28/32/32 46/38/32 45/35/32
f 28/32/32 48/39/32 46/38/32
f 47/36/33 48/39/33 28/32/33
f 47/36/34 32/48/34 48/39/34
f 61/49/35 57/50/35 60/51/35
f 61/49/35 54/52/35 57/50/35
f 50/53/36 56/54/36 58/55/36
f 50/53/36 55/56/36 56/54/36
f 49/57/13 50/53/13 58/55/13
f 49/57/13 51/58/13 50/53/13
f 62/59/4 49/57/4 52/60/4
f 62/59/4 51/58/4 49/57/4
f 59/61/37 62/59/37 52/60/37
f 59/61/37 53/62/37 62/59/37
f 60/51/38 53/62/38 59/61/38
f 60/51/38 57/50/38 53/62/38
f 56/54/13 54/52/13 61/49/13
f 56/54/13 55/56/13 54/52/13
f 55/56/39 53/62/39 57/50/39
f 55/56/39 57/50/39 54/52/39
f 52/60/40 49/57/40 58/55/40
f 52/60/40 58/55/40 59/61/40
f 59/61/40 58/55/40 56/54/40
f 60/51/41 59/61/41 56/54/41
f 61/49/41 60/51/41 56/54/41
f 50/53/42 62/59/42 53/62/42
f 50/53/42 51/58/42 62/59/42
f 55/56/42 50/53/42 53/62/42
f 81/63/2 64/64/2 63/65/2
f 81/63/2 79/66/2 64/64/2
f 156/67/13 65/68/13 79/66/13
f 156/67/13 66/69/13 65/68/13
f 66/69/2 77/70/2 156/67/2
f 75/71/13 66/69/13 77/70/13
f 66/69/13 74/72/13 65/68/13
f 74/72/2 67/73/2 157/74/2
f 74/72/2 72/75/2 67/73/2
f 72/75/2 74/72/2 65/68/2
f 65/68/2 79/66/2 81/63/2
f 158/76/2 155/77/2 70/78/2
f 69/79/13 73/80/13 68/81/13
f 69/79/13 159/82/13 73/80/13
f 158/76/2 70/78/2 69/79/2
f 78/83/2 158/76/2 76/84/2
f 155/77/2 158/76/2 78/83/2
f 155/77/2 154/85/2 70/78/2
f 80/86/13 153/87/13 154/85/13
f 80/86/13 71/88/13 153/87/13
f 80/86/13 154/85/13 70/78/13
f 70/78/13 69/79/13 68/81/13
f 72/75/43 70/78/43 68/81/43
f 72/75/43 65/68/43 70/78/43
f 67/73/9 68/81/9 73/80/9
f 67/73/9 72/75/9 68/81/9
f 157/74/4 73/80/4 159/82/4
f 157/74/4 67/73/4 73/80/4
f 159/82/9 74/72/9 69/79/9
f 74/72/10 157/74/10 159/82/10
f 66/69/4 69/79/4 158/76/4
f 74/72/16 66/69/16 69/79/16
f 75/71/9 158/76/9 76/84/9
f 75/71/9 66/69/9 158/76/9
f 76/84/16 77/70/16 78/83/16
f 75/71/16 77/70/16 76/84/16
f 156/67/10 78/83/10 155/77/10
f 77/70/9 156/67/9 78/83/9
f 79/66/4 155/77/4 154/85/4
f 156/67/16 79/66/16 155/77/16
f 64/64/9 154/85/9 153/87/9
f 64/64/9 79/66/9 154/85/9
f 63/65/4 153/87/4 71/88/4
f 63/65/4 64/64/4 153/87/4
f 81/63/10 71/88/10 80/86/10
f 81/63/10 63/65/10 71/88/10
f 65/68/44 80/86/44 70/78/44
f 65/68/44 81/63/44 80/86/44
f 82/89/4 97/90/4 96/91/4
f 82/89/4 83/92/4 97/90/4
f 82/89/4 84/93/4 83/92/4
f 101/94/4 82/89/4 96/91/4
f 85/95/4 101/94/4 96/91/4
f 87/96/4 86/97/4 85/95/4
f 87/96/4 88/98/4 86/97/4
f 87/96/4 103/99/4 88/98/4
f 105/100/4 85/95/4 96/91/4
f 105/100/4 87/96/4 85/95/4
f 89/101/16 90/102/16 104/103/16
f 89/101/16 102/104/16 90/102/16
f 89/101/17 91/105/17 102/104/17
f 100/106/16 89/101/16 104/103/16
f 94/107/16 100/106/16 104/103/16
f 92/108/16 99/109/16 94/107/16
f 92/108/16 93/110/16 99/109/16
f 92/108/18 98/111/18 93/110/18
f 95/112/16 94/107/16 104/103/16
f 95/112/16 92/108/16 94/107/16
f 96/91/20 95/112/20 105/100/20
f 96/91/19 92/108/19 95/112/19
f 98/111/21 96/91/21 97/90/21
f 98/111/21 92/108/21 96/91/21
f 93/110/22 97/90/22 83/92/22
f 93/110/22 98/111/22 97/90/22
f 99/109/23 83/92/23 84/93/23
f 99/109/23 93/110/23 83/92/23
f 94/107/24 84/93/24 82/89/24
f 94/107/24 99/109/24 84/93/24
f 100/106/26 82/89/26 101/94/26
f 100/106/25 94/107/25 82/89/25
f 85/95/28 100/106/28 101/94/28
f 85/95/27 89/101/27 100/106/27
f 86/97/29 89/101/29 85/95/29
f 86/97/29 91/105/29 89/101/29
f 88/98/30 91/105/30 86/97/30
f 88/98/30 102/104/30 91/105/30
f 103/99/31 102/104/31 88/98/31
f 103/99/31 90/102/31 102/104/31
f 87/96/32 90/102/32 103/99/32
f 87/96/32 104/103/32 90/102/32
f 105/100/34 104/103/34 87/96/34
f 105/100/33 95/112/33 104/103/33
f 118/113/31 148/114/31 117/115/31
f 118/113/31 152/116/31 148/114/31
f 121/117/32 152/116/32 118/113/32
f 121/117/32 107/118/32 152/116/32
f 106/119/34 107/118/34 121/117/34
f 106/119/34 151/120/34 107/118/34
f 122/121/20 151/120/20 106/119/20
f 122/121/20 108/122/20 151/120/20
f 123/123/21 108/122/21 122/121/21
f 123/123/21 109/124/21 108/122/21
f 124/125/22 109/124/22 123/123/22
f 124/125/22 110/126/22 109/124/22
f 127/127/23 110/126/23 124/125/23
f 127/127/23 111/128/23 110/126/23
f 112/129/24 111/128/24 127/127/24
f 112/129/24 150/130/24 111/128/24
f 114/131/26 150/130/26 112/129/26
f 114/131/26 113/132/26 150/130/26
f 116/133/27 114/131/27 115/134/27
f 116/133/27 113/132/27 114/131/27
f 129/135/29 116/133/29 115/134/29
f 129/135/29 149/136/29 116/133/29
f 117/115/30 149/136/30 129/135/30
f 117/115/30 148/114/30 149/136/30
f 118/113/16 130/137/16 120/138/16
f 118/113/16 117/115/16 130/137/16
f 121/117/16 120/138/16 119/139/16
f 121/117/16 118/113/16 120/138/16
f 106/119/16 119/139/16 132/140/16
f 106/119/16 121/117/16 119/139/16
f 134/141/16 106/119/16 132/140/16
f 134/141/16 122/121/16 106/119/16
f 135/142/16 122/121/16 134/141/16
f 135/142/16 123/123/16 122/121/16
f 125/143/16 123/123/16 135/142/16
f 125/143/16 124/125/16 123/123/16
f 127/127/16 125/143/16 126/144/16
f 127/127/16 124/125/16 125/143/16
f 112/129/16 126/144/16 136/145/16
f 112/129/16 127/127/16 126/144/16
f 114/131/16 136/145/16 137/146/16
f 114/131/16 112/129/16 136/145/16
f 139/147/16 114/131/16 137/146/16
f 139/147/16 115/134/16 114/131/16
f 128/148/16 115/134/16 139/147/16
f 128/148/16 129/135/16 115/134/16
f 130/137/16 129/135/16 128/148/16
f 130/137/16 117/115/16 129/135/16
f 131/149/45 130/137/45 147/150/45
f 131/149/45 120/138/45 130/137/45
f 146/151/46 120/138/46 131/149/46
f 146/151/46 119/139/46 120/138/46
f 132/140/47 146/151/47 142/152/47
f 132/140/47 119/139/47 146/151/47
f 133/153/48 132/140/48 142/152/48
f 133/153/48 134/141/48 132/140/48
f 143/154/49 134/141/49 133/153/49
f 143/154/49 135/142/49 134/141/49
f 206/155/50 135/142/50 143/154/50
f 206/155/50 125/143/50 135/142/50
f 141/156/51 125/143/51 206/155/51
f 141/156/51 126/144/51 125/143/51
f 136/145/52 141/156/52 144/157/52
f 136/145/52 126/144/52 141/156/52
f 137/146/53 144/157/53 145/158/53
f 137/146/53 136/145/53 144/157/53
f 139/147/54 145/158/54 138/159/54
f 139/147/54 137/146/54 145/158/54
f 128/148/55 138/159/55 140/160/55
f 128/148/55 139/147/55 138/159/55
f 147/150/56 128/148/56 140/160/56
f 147/150/56 130/137/56 128/148/56
f 146/151/4 131/149/4 147/150/4
f 141/156/4 206/155/4 143/154/4
f 144/157/4 141/156/4 143/154/4
f 145/158/4 133/153/4 142/152/4
f 145/158/4 143/154/4 133/153/4
f 145/158/4 144/157/4 143/154/4
f 146/151/4 145/158/4 142/152/4
f 146/151/4 138/159/4 145/158/4
f 146/151/4 140/160/4 138/159/4
f 146/151/4 147/150/4 140/160/4
f 116/133/16 149/136/16 148/114/16
f 109/124/16 110/126/16 111/128/16
f 108/122/16 150/130/16 113/132/16
f 108/122/16 111/128/16 150/130/16
f 108/122/16 109/124/16 111/128/16
f 116/133/16 108/122/16 113/132/16
f 116/133/16 151/120/16 108/122/16
f 116/133/16 107/118/16 151/120/16
f 116/133/16 152/116/16 107/118/16
f 116/133/16 148/114/16 152/116/16
f 78/83/16 64/64/16 153/87/16
f 77/70/16 64/64/16 78/83/16
f 79/66/10 153/87/10 154/85/10
f 64/64/9 79/66/9 153/87/9
f 154/85/4 156/67/4 155/77/4
f 79/66/4 156/67/4 154/85/4
f 77/70/9 155/77/9 78/83/9
f 156/67/10 77/70/10 155/77/10
f 155/77/2 153/87/2 154/85/2
f 78/83/2 153/87/2 155/77/2
f 79/66/13 77/70/13 156/67/13
f 64/64/13 77/70/13 79/66/13
f 159/82/16 75/71/16 76/84/16
f 75/71/4 157/74/4 159/82/4
f 76/84/9 66/69/9 158/76/9
f 75/71/9 66/69/9 76/84/9
f 158/76/4 74/72/4 69/79/4
f 74/72/16 66/69/16 158/76/16
f 69/79/10 157/74/10 159/82/10
f 74/72/10 157/74/10 69/79/10
f 69/79/2 76/84/2 158/76/2
f 159/82/2 76/84/2 69/79/2
f 66/69/13 157/74/13 74/72/13
f 75/71/13 157/74/13 66/69/13
f 176/161/9 177/162/9 161/163/9
f 175/164/9 176/161/9 169/165/9
f 172/166/9 174/167/9 175/164/9
f 171/168/9 173/169/9 174/167/9
f 171/168/9 174/167/9 172/166/9
f 172/166/9 175/164/9 160/170/9
f 160/170/9 175/164/9 169/165/9
f 169/165/9 176/161/9 161/163/9
f 165/171/10 163/172/10 162/173/10
f 165/171/10 164/174/10 163/172/10
f 166/175/10 162/173/10 170/176/10
f 166/175/10 165/171/10 162/173/10
f 168/177/10 167/178/10 166/175/10
f 179/179/10 178/180/10 167/178/10
f 179/179/10 167/178/10 168/177/10
f 168/177/10 166/175/10 170/176/10
f 160/170/57 168/177/57 170/176/57
f 160/170/57 169/165/57 168/177/57
f 172/166/12 170/176/12 162/173/12
f 172/166/12 160/170/12 170/176/12
f 171/168/13 162/173/13 163/172/13
f 171/168/13 172/166/13 162/173/13
f 164/174/4 171/168/4 163/172/4
f 164/174/4 173/169/4 171/168/4
f 165/171/2 173/169/2 164/174/2
f 165/171/2 174/167/2 173/169/2
f 166/175/58 174/167/58 165/171/58
f 166/175/58 175/164/58 174/167/58
f 176/161/59 166/175/59 167/178/59
f 176/161/59 175/164/59 166/175/59
f 177/162/13 167/178/13 178/180/13
f 177/162/13 176/161/13 167/178/13
f 179/179/4 177/162/4 178/180/4
f 179/179/4 161/163/4 177/162/4
f 169/165/2 179/179/2 168/177/2
f 169/165/2 161/163/2 179/179/2
f 194/181/9 196/182/9 197/183/9
f 180/184/9 194/181/9 199/185/9
f 190/186/9 193/187/9 180/184/9
f 182/188/9 181/189/9 193/187/9
f 182/188/9 193/187/9 190/186/9
f 190/186/9 180/184/9 183/190/9
f 183/190/9 180/184/9 199/185/9
f 199/185/9 194/181/9 197/183/9
f 192/191/10 191/192/10 189/193/10
f 192/191/10 184/194/10 191/192/10
f 186/195/10 189/193/10 185/196/10
f 186/195/10 192/191/10 189/193/10
f 188/197/10 195/198/10 186/195/10
f 198/199/10 187/200/10 195/198/10
f 198/199/10 195/198/10 188/197/10
f 188/197/10 186/195/10 185/196/10
f 183/190/57 188/197/57 185/196/57
f 183/190/57 199/185/57 188/197/57
f 190/186/12 185/196/12 189/193/12
f 190/186/12 183/190/12 185/196/12
f 182/188/13 189/193/13 191/192/13
f 182/188/13 190/186/13 189/193/13
f 184/194/4 182/188/4 191/192/4
f 184/194/4 181/189/4 182/188/4
f 192/191/2 181/189/2 184/194/2
f 192/191/2 193/187/2 181/189/2
f 186/195/58 193/187/58 192/191/58
f 186/195/58 180/184/58 193/187/58
f 194/181/59 186/195/59 195/198/59
f 194/181/59 180/184/59 186/195/59
f 196/182/13 195/198/13 187/200/13
f 196/182/13 194/181/13 195/198/13
f 198/199/4 196/182/4 187/200/4
f 198/199/4 197/183/4 196/182/4
f 199/185/2 198/199/2 188/197/2
f 199/185/2 197/183/2 198/199/2
f 238/201/16 236/202/16 203/203/16
f 201/204/16 200/205/16 237/206/16
f 201/204/16 241/207/16 200/205/16
f 201/204/16 202/208/16 241/207/16
f 201/204/16 242/209/16 202/208/16
f 238/201/16 201/204/16 237/206/16
f 238/201/16 245/210/16 201/204/16
f 238/201/16 203/203/16 245/210/16
f 204/211/16 203/203/16 236/202/16
f 204/211/16 246/212/16 203/203/16
f 219/213/4 221/214/4 210/215/4
f 213/216/4 205/217/4 220/218/4
f 213/216/4 217/219/4 205/217/4
f 213/216/4 206/155/4 217/219/4
f 213/216/4 214/220/4 206/155/4
f 219/213/4 213/216/4 220/218/4
f 219/213/4 207/221/4 213/216/4
f 219/213/4 208/222/4 207/221/4
f 219/213/4 209/223/4 208/222/4
f 219/213/4 210/215/4 209/223/4
f 234/224/50 210/215/50 223/225/50
f 234/224/50 209/223/50 210/215/50
f 208/222/49 234/224/49 212/226/49
f 208/222/49 209/223/49 234/224/49
f 207/221/48 212/226/48 211/227/48
f 207/221/48 208/222/48 212/226/48
f 226/228/47 207/221/47 211/227/47
f 226/228/47 213/216/47 207/221/47
f 229/229/46 213/216/46 226/228/46
f 229/229/46 214/220/46 213/216/46
f 206/155/45 229/229/45 215/230/45
f 206/155/45 214/220/45 229/229/45
f 216/231/56 206/155/56 215/230/56
f 216/231/56 217/219/56 206/155/56
f 218/232/55 217/219/55 216/231/55
f 218/232/55 205/217/55 217/219/55
f 220/218/54 218/232/54 230/233/54
f 220/218/54 205/217/54 218/232/54
f 219/213/53 230/233/53 231/234/53
f 219/213/53 220/218/53 230/233/53
f 222/235/52 219/213/52 231/234/52
f 222/235/52 221/214/52 219/213/52
f 223/225/51 221/214/51 222/235/51
f 223/225/51 210/215/51 221/214/51
f 235/236/16 224/237/16 234/224/16
f 212/226/16 224/237/16 225/238/16
f 212/226/16 234/224/16 224/237/16
f 239/239/16 212/226/16 225/238/16
f 239/239/16 211/227/16 212/226/16
f 226/228/16 239/239/16 240/240/16
f 226/228/16 211/227/16 239/239/16
f 228/241/16 226/228/16 240/240/16
f 228/241/16 229/229/16 226/228/16
f 215/230/16 228/241/16 227/242/16
f 215/230/16 229/229/16 228/241/16
f 216/231/16 227/242/16 243/243/16
f 216/231/16 215/230/16 227/242/16
f 218/232/16 243/243/16 244/244/16
f 218/232/16 216/231/16 243/243/16
f 232/245/16 218/232/16 244/244/16
f 232/245/16 230/233/16 218/232/16
f 231/234/16 232/245/16 247/246/16
f 231/234/16 230/233/16 232/245/16
f 233/247/16 231/234/16 247/246/16
f 233/247/16 222/235/16 231/234/16
f 223/225/16 235/236/16 234/224/16
f 223/225/16 233/247/16 235/236/16
f 223/225/16 222/235/16 233/247/16
f 204/211/22 236/202/22 224/237/22
f 225/238/21 236/202/21 238/201/21
f 225/238/21 224/237/21 236/202/21
f 239/239/20 238/201/20 237/206/20
f 239/239/20 225/238/20 238/201/20
f 240/240/34 237/206/34 200/205/34
f 240/240/33 239/239/33 237/206/33
f 228/241/32 200/205/32 241/207/32
f 228/241/32 240/240/32 200/205/32
f 227/242/31 241/207/31 202/208/31
f 227/242/31 228/241/31 241/207/31
f 243/243/30 202/208/30 242/209/30
f 243/243/30 227/242/30 202/208/30
f 244/244/29 242/209/29 201/204/29
f 244/244/29 243/243/29 242/209/29
f 232/245/28 201/204/28 245/210/28
f 232/245/27 244/244/27 201/204/27
f 247/246/26 245/210/26 203/203/26
f 247/246/26 232/245/26 245/210/26
f 233/247/24 203/203/24 246/212/24
f 233/247/24 247/246/24 203/203/24
f 235/236/22 204/211/22 224/237/22
f 235/236/23 246/212/23 204/211/23
f 235/236/23 233/247/23 246/212/23
