# Blender v2.76 (sub 0) OBJ File: '2500px_P-IBlueprint_Pruitt-IgoeMyth_.blend'
# www.blender.org
mtllib 2500px_P-IBlueprint_Pruitt-IgoeMyth_.mtl
o Curve.034_rect3479
v 2.564188 -0.000000 1.477696
v 2.564188 -0.000000 1.915025
v 2.608556 -0.000000 1.915025
v 2.608556 -0.000000 2.124184
v 2.424719 -0.000000 2.124184
v 2.424719 -0.000000 2.764332
v 3.242510 -0.000000 2.764332
v 3.242510 -0.000000 2.124184
v 3.096699 -0.000000 2.124184
v 3.096699 -0.000000 1.915025
v 4.345568 -0.000000 1.915025
v 4.345568 -0.000000 1.477696
vn 0.000000 1.000000 0.000000
vn 0.000000 0.000000 1.000000
usemtl SVGMat.035
s off
f 2//1 12//1 1//1
f 2//1 11//1 12//1
f 3//2 11//2 2//2
f 4//1 10//1 3//1
f 10//2 11//2 3//2
f 4//1 9//1 10//1
f 6//1 4//1 5//1
f 6//1 9//1 4//1
f 6//1 8//1 9//1
f 6//1 7//1 8//1
o Curve.033_path3470
v -2.218499 -0.000000 3.370785
v -2.218499 -0.000000 3.612329
v -2.011609 -0.000000 3.612329
v -2.011609 -0.000000 3.548938
v -1.483115 -0.000000 3.548938
v -1.483115 -0.000000 3.615493
v -1.222350 -0.000000 3.615493
v -1.222350 -0.000000 3.370785
vn 0.000000 1.000000 0.000000
usemtl SVGMat.034
s off
f 14//3 16//3 13//3
f 16//3 20//3 13//3
f 16//3 17//3 20//3
f 17//3 19//3 20//3
f 14//3 15//3 16//3
f 18//3 19//3 17//3
o Curve.032_path3468
v -3.213653 -0.000000 3.612329
v -3.213653 -0.000000 3.852100
v -3.014172 -0.000000 3.852100
v -3.014172 -0.000000 3.793838
v -2.480726 -0.000000 3.793838
v -2.480726 -0.000000 3.858824
v -2.218499 -0.000000 3.858824
v -2.218499 -0.000000 3.612329
vn 0.000000 1.000000 0.000000
usemtl SVGMat.033
s off
f 22//4 24//4 21//4
f 24//4 28//4 21//4
f 24//4 25//4 28//4
f 25//4 27//4 28//4
f 22//4 23//4 24//4
f 26//4 27//4 25//4
o Curve.031_path3466
v -4.226730 -0.000000 3.343421
v -4.226730 -0.000000 3.621283
v -4.004843 -0.000000 3.621283
v -4.004843 -0.000000 3.536137
v -3.480364 -0.000000 3.536137
v -3.480364 -0.000000 3.612329
v -3.213653 -0.000000 3.612329
v -3.213653 -0.000000 3.343421
vn 0.000000 1.000000 0.000000
usemtl SVGMat.032
s off
f 30//5 32//5 29//5
f 32//5 36//5 29//5
f 32//5 33//5 36//5
f 33//5 35//5 36//5
f 30//5 31//5 32//5
f 34//5 35//5 33//5
o Curve.030_path3464
v 0.686282 -0.000000 3.630256
v 0.686282 -0.000000 3.870027
v 0.486800 -0.000000 3.870027
v 0.486800 -0.000000 3.811764
v -0.046646 -0.000000 3.811764
v -0.046646 -0.000000 3.876750
v -0.308873 -0.000000 3.876750
v -0.308873 -0.000000 3.630256
vn 0.000000 1.000000 0.000000
usemtl SVGMat.031
s off
f 43//6 41//6 44//6
f 41//6 37//6 44//6
f 41//6 40//6 37//6
f 40//6 38//6 37//6
f 43//6 42//6 41//6
f 39//6 38//6 40//6
o Curve.029_path3462
v 1.699358 -0.000000 3.361348
v 1.699358 -0.000000 3.639209
v 1.477471 -0.000000 3.639209
v 1.477471 -0.000000 3.554064
v 0.952992 -0.000000 3.554064
v 0.952992 -0.000000 3.630256
v 0.686282 -0.000000 3.630256
v 0.686282 -0.000000 3.361348
vn 0.000000 1.000000 0.000000
usemtl SVGMat.030
s off
f 51//7 49//7 52//7
f 49//7 45//7 52//7
f 49//7 48//7 45//7
f 48//7 46//7 45//7
f 51//7 50//7 49//7
f 47//7 46//7 48//7
o Curve.028_path3457
v -1.312996 -0.000000 0.340662
v -1.312996 -0.000000 0.580434
v -1.113514 -0.000000 0.580434
v -1.113514 -0.000000 0.522172
v -0.580069 -0.000000 0.522172
v -0.576760 -0.000000 0.520602
v -0.576760 -0.000000 0.599167
v -0.303384 -0.000000 0.599585
v -0.303384 -0.000000 0.358052
vn 0.000000 1.000000 0.000000
usemtl SVGMat.029
s off
f 54//8 56//8 53//8
f 56//8 61//8 53//8
f 56//8 58//8 61//8
f 58//8 60//8 61//8
f 56//8 57//8 58//8
f 59//8 60//8 58//8
f 54//8 55//8 56//8
o Curve.027_path3455
v -0.303380 -0.000000 0.599592
v -0.303380 -0.000000 0.839747
v -0.027307 -0.000000 0.839747
v -0.027307 -0.000000 0.792775
v 1.559244 -0.000000 0.792775
v 1.559244 -0.000000 0.868967
v 1.825954 -0.000000 0.868967
v 1.825954 -0.000000 0.600059
v -0.766012 -0.000002 -0.749594
v -0.680906 -0.000002 -0.749594
v -0.595798 -0.000002 -0.749595
v -0.510693 -0.000002 -0.749594
v -0.425587 -0.000002 -0.749594
v -0.340480 -0.000002 -0.749595
v -0.255373 -0.000002 -0.749595
v -0.170266 -0.000002 -0.749594
v -0.085161 -0.000002 -0.749594
v -0.000055 -0.000002 -0.749594
v 0.085052 -0.000002 -0.749596
v 0.170159 -0.000002 -0.749595
v 0.255265 -0.000002 -0.749595
v 0.340372 -0.000002 -0.749595
v 0.425478 -0.000002 -0.749595
v 0.510585 -0.000002 -0.749595
v 0.595692 -0.000002 -0.749596
v 0.680798 -0.000002 -0.749596
v 0.765903 -0.000002 -0.749595
v 0.851010 -0.000002 -0.749596
v 0.936116 -0.000002 -0.749595
v 1.021223 -0.000002 -0.749595
v 1.106329 -0.000002 -0.749596
v 1.191436 -0.000002 -0.749596
v 1.276540 -0.000002 -0.749594
v 1.361648 -0.000002 -0.749594
v 1.446754 -0.000002 -0.749594
v 1.531860 -0.000002 -0.749594
v 1.616966 -0.000002 -0.749595
v 1.702073 -0.000002 -0.749594
v 1.787179 -0.000002 -0.749594
v 1.872286 -0.000002 -0.749594
v 1.957393 -0.000002 -0.749594
v 2.042499 -0.000002 -0.749594
v 2.127605 -0.000002 -0.749594
v 2.212710 -0.000002 -0.749594
v 2.297817 -0.000002 -0.749594
v 2.382923 -0.000002 -0.749594
v 2.468030 -0.000002 -0.749594
v 2.553136 -0.000002 -0.749594
v 2.638243 -0.000002 -0.749594
v 2.723350 -0.000002 -0.749594
v 2.808455 -0.000002 -0.749595
v 2.893561 -0.000002 -0.749594
v 2.978669 -0.000002 -0.749594
v 3.063775 -0.000002 -0.749594
v 3.148882 -0.000002 -0.749594
v 3.233988 -0.000002 -0.749594
v -1.568374 -0.000002 -0.117447
v -1.483268 -0.000002 -0.117447
v -1.398160 -0.000002 -0.117448
v -1.313054 -0.000002 -0.117447
v -1.227948 -0.000002 -0.117447
v -1.142842 -0.000002 -0.117447
v -1.057735 -0.000002 -0.117448
v -0.972629 -0.000002 -0.117448
v -0.887523 -0.000002 -0.117447
v -0.802416 -0.000002 -0.117448
v -0.717309 -0.000002 -0.117448
v -0.632204 -0.000002 -0.117448
v -0.547097 -0.000002 -0.117448
v -0.461991 -0.000002 -0.117448
v -0.376883 -0.000002 -0.117448
v -0.291777 -0.000002 -0.117449
v -0.206670 -0.000002 -0.117449
v -0.121564 -0.000002 -0.117449
v -0.036458 -0.000002 -0.117448
v 0.048648 -0.000002 -0.117448
v 0.133754 -0.000002 -0.117448
v 0.218860 -0.000002 -0.117448
v 0.303967 -0.000002 -0.117448
v 0.389074 -0.000002 -0.117448
v 0.474178 -0.000002 -0.117447
v 0.559286 -0.000002 -0.117447
v 0.644392 -0.000002 -0.117447
v 0.729498 -0.000002 -0.117447
v 0.814605 -0.000002 -0.117447
v 0.899712 -0.000002 -0.117448
v 0.984818 -0.000002 -0.117447
v 1.069923 -0.000002 -0.117448
v 1.155031 -0.000002 -0.117447
v 1.240137 -0.000002 -0.117447
v 1.325243 -0.000002 -0.117447
v 1.410348 -0.000002 -0.117447
v 1.495456 -0.000002 -0.117448
v 1.580562 -0.000002 -0.117447
v 1.665668 -0.000002 -0.117447
v 1.750774 -0.000002 -0.117447
v 1.835881 -0.000002 -0.117447
v 1.920987 -0.000002 -0.117447
v 2.006095 -0.000002 -0.117448
v 2.091200 -0.000002 -0.117447
v 2.176307 -0.000002 -0.117448
v 2.261414 -0.000002 -0.117447
v 2.346519 -0.000002 -0.117447
v 2.431625 -0.000002 -0.117447
v -1.568374 -0.000002 -0.117447
v -1.483268 -0.000002 -0.117447
v -1.398160 -0.000002 -0.117448
v -1.313054 -0.000002 -0.117447
v -1.227948 -0.000002 -0.117447
v -1.142842 -0.000002 -0.117447
v -1.057735 -0.000002 -0.117448
v -0.972629 -0.000002 -0.117448
v -0.887523 -0.000002 -0.117447
v -0.802416 -0.000002 -0.117448
v -0.717309 -0.000002 -0.117448
v -0.632204 -0.000002 -0.117448
v -0.547097 -0.000002 -0.117448
v -0.461991 -0.000002 -0.117448
v -0.376883 -0.000002 -0.117448
v -0.291777 -0.000002 -0.117449
v -0.206670 -0.000002 -0.117449
v -0.121564 -0.000002 -0.117449
v -0.036458 -0.000002 -0.117448
v 0.048648 -0.000002 -0.117448
v 0.133754 -0.000002 -0.117448
v 0.218860 -0.000002 -0.117448
v 0.303967 -0.000002 -0.117448
v 0.389074 -0.000002 -0.117448
v 0.474178 -0.000002 -0.117447
v 0.559286 -0.000002 -0.117447
v 0.644392 -0.000002 -0.117447
v 0.729498 -0.000002 -0.117447
v 0.814605 -0.000002 -0.117447
v 0.899712 -0.000002 -0.117448
v 0.984818 -0.000002 -0.117447
v 1.069923 -0.000002 -0.117448
v 1.155031 -0.000002 -0.117447
v 1.240137 -0.000002 -0.117447
v 1.325243 -0.000002 -0.117447
v 1.410348 -0.000002 -0.117447
v 1.495456 -0.000002 -0.117448
v 1.580562 -0.000002 -0.117447
v 1.665668 -0.000002 -0.117447
v 1.750774 -0.000002 -0.117447
v 1.835881 -0.000002 -0.117447
v 1.920987 -0.000002 -0.117447
v 2.006095 -0.000002 -0.117448
v 2.091200 -0.000002 -0.117447
v 2.176307 -0.000002 -0.117448
v 2.261414 -0.000002 -0.117447
v 2.346519 -0.000002 -0.117447
v 2.431625 -0.000002 -0.117447
vn 0.000000 1.000000 0.000000
usemtl SVGMat.028
s off
f 63//9 65//9 62//9
f 65//9 69//9 62//9
f 65//9 66//9 69//9
f 66//9 68//9 69//9
f 63//9 64//9 65//9
f 67//9 68//9 66//9
l 70 71
l 71 72
l 72 73
l 73 74
l 74 75
l 75 76
l 76 77
l 77 78
l 78 79
l 79 80
l 80 81
l 81 82
l 82 83
l 83 84
l 84 85
l 85 86
l 86 87
l 87 88
l 88 89
l 89 90
l 90 91
l 91 92
l 92 93
l 93 94
l 94 95
l 95 96
l 96 97
l 97 98
l 98 99
l 99 100
l 100 101
l 101 102
l 102 103
l 103 104
l 104 105
l 105 106
l 106 107
l 107 108
l 108 109
l 109 110
l 110 111
l 111 112
l 112 113
l 113 114
l 114 115
l 115 116
l 116 117
l 118 119
l 119 120
l 120 121
l 121 122
l 122 123
l 123 124
l 124 125
l 125 126
l 126 127
l 127 128
l 128 129
l 129 130
l 130 131
l 131 132
l 132 133
l 133 134
l 134 135
l 135 136
l 136 137
l 137 138
l 138 139
l 139 140
l 140 141
l 141 142
l 142 143
l 143 144
l 144 145
l 145 146
l 146 147
l 147 148
l 148 149
l 149 150
l 150 151
l 151 152
l 152 153
l 153 154
l 154 155
l 155 156
l 156 157
l 157 158
l 158 159
l 159 160
l 160 161
l 161 162
l 162 163
l 163 164
l 164 165
l 166 167
l 167 168
l 168 169
l 169 170
l 170 171
l 171 172
l 172 173
l 173 174
l 174 175
l 175 176
l 176 177
l 177 178
l 178 179
l 179 180
l 180 181
l 181 182
l 182 183
l 183 184
l 184 185
l 185 186
l 186 187
l 187 188
l 188 189
l 189 190
l 190 191
l 191 192
l 192 193
l 193 194
l 194 195
l 195 196
l 196 197
l 197 198
l 198 199
l 199 200
l 200 201
l 201 202
l 202 203
l 203 204
l 204 205
l 205 206
l 206 207
l 207 208
l 208 209
l 209 210
l 210 211
l 211 212
l 212 213
o Curve.026_path3453
v -4.554042 -0.000000 1.881910
v -4.554042 -0.000000 2.122065
v -4.277969 -0.000000 2.122065
v -4.277969 -0.000000 2.075093
v -2.691419 -0.000000 2.075093
v -2.691419 -0.000000 2.151285
v -2.424708 -0.000000 2.151285
v -2.424708 -0.000000 1.882378
vn 0.000000 1.000000 0.000000
usemtl SVGMat.027
s off
f 215//10 217//10 214//10
f 217//10 221//10 214//10
f 217//10 218//10 221//10
f 218//10 220//10 221//10
f 215//10 216//10 217//10
f 219//10 220//10 218//10
o Curve.025_path3451
v 0.740065 -0.000000 2.124396
v 0.740065 -0.000000 2.364166
v 0.939547 -0.000000 2.364166
v 0.939547 -0.000000 2.305905
v 1.472992 -0.000000 2.305905
v 1.472992 -0.000000 2.370890
v 1.735219 -0.000000 2.370890
v 1.735219 -0.000000 2.124396
vn 0.000000 1.000000 0.000000
usemtl SVGMat.026
s off
f 223//11 225//11 222//11
f 225//11 229//11 222//11
f 225//11 226//11 229//11
f 226//11 228//11 229//11
f 223//11 224//11 225//11
f 227//11 228//11 226//11
o Curve.024_path3449
v -1.389275 -0.000000 1.855020
v -1.389275 -0.000000 2.095174
v -1.113201 -0.000000 2.095174
v -1.113201 -0.000000 2.048203
v 0.473349 -0.000000 2.048203
v 0.473349 -0.000000 2.124395
v 0.740060 -0.000000 2.124395
v 0.740060 -0.000000 1.855487
vn 0.000000 1.000000 0.000000
usemtl SVGMat.025
s off
f 231//12 233//12 230//12
f 233//12 237//12 230//12
f 233//12 234//12 237//12
f 234//12 236//12 237//12
f 231//12 232//12 233//12
f 235//12 236//12 234//12
o Curve.023_path3447
v -2.881935 -0.000000 0.636463
v -2.881935 -0.000000 0.876233
v -2.682454 -0.000000 0.876233
v -2.682454 -0.000000 0.817972
v -2.149008 -0.000000 0.817972
v -2.149008 -0.000000 0.882957
v -1.886781 -0.000000 0.882957
v -1.886781 -0.000000 0.636463
vn 0.000000 1.000000 0.000000
usemtl SVGMat.024
s off
f 239//13 241//13 238//13
f 241//13 245//13 238//13
f 241//13 242//13 245//13
f 242//13 244//13 245//13
f 239//13 240//13 241//13
f 243//13 244//13 242//13
o Curve.022_path3445
v -5.011275 -0.000000 0.367086
v -5.011275 -0.000000 0.607241
v -4.735202 -0.000000 0.607241
v -4.735202 -0.000000 0.560270
v -3.148652 -0.000000 0.560270
v -3.148652 -0.000000 0.636462
v -2.881941 -0.000000 0.636462
v -2.881941 -0.000000 0.367554
vn 0.000000 1.000000 0.000000
usemtl SVGMat.023
s off
f 247//14 249//14 246//14
f 249//14 253//14 246//14
f 249//14 250//14 253//14
f 250//14 252//14 253//14
f 247//14 248//14 249//14
f 251//14 252//14 250//14
o Curve.021_path3443
v 3.537253 -0.000000 0.618536
v 3.537253 -0.000000 0.858305
v 3.736735 -0.000000 0.858305
v 3.736735 -0.000000 0.800045
v 4.270180 -0.000000 0.800045
v 4.270180 -0.000000 0.865030
v 4.532408 -0.000000 0.865030
v 4.532408 -0.000000 0.618536
vn 0.000000 1.000000 0.000000
usemtl SVGMat.022
s off
f 255//15 257//15 254//15
f 257//15 261//15 254//15
f 257//15 258//15 261//15
f 258//15 260//15 261//15
f 255//15 256//15 257//15
f 259//15 260//15 258//15
o Curve.020_path3441
v 2.524177 -0.000000 0.349627
v 2.524177 -0.000000 0.627488
v 2.746064 -0.000000 0.627488
v 2.746064 -0.000000 0.542343
v 3.270543 -0.000000 0.542343
v 3.270543 -0.000000 0.618536
v 3.537253 -0.000000 0.618536
v 3.537253 -0.000000 0.349627
vn 0.000000 1.000000 0.000000
usemtl SVGMat.021
s off
f 263//16 265//16 262//16
f 265//16 269//16 262//16
f 265//16 266//16 269//16
f 266//16 268//16 269//16
f 263//16 264//16 265//16
f 267//16 268//16 266//16
o Curve.019_path3439
v 3.411739 -0.000000 -0.788727
v 3.411739 -0.000000 -0.548956
v 3.611220 -0.000000 -0.548956
v 3.611220 -0.000000 -0.607218
v 4.144665 -0.000000 -0.607218
v 4.144665 -0.000000 -0.542232
v 4.406894 -0.000000 -0.542232
v 4.406894 -0.000000 -0.788727
vn 0.000000 1.000000 0.000000
usemtl SVGMat.020
s off
f 271//17 273//17 270//17
f 273//17 277//17 270//17
f 273//17 274//17 277//17
f 274//17 276//17 277//17
f 271//17 272//17 273//17
f 275//17 276//17 274//17
o Curve.018_path3437
v 2.398662 -0.000000 -1.057635
v 2.398662 -0.000000 -0.779774
v 2.620549 -0.000000 -0.779774
v 2.620549 -0.000000 -0.864919
v 3.145028 -0.000000 -0.864919
v 3.145028 -0.000000 -0.788727
v 3.411739 -0.000000 -0.788727
v 3.411739 -0.000000 -1.057635
vn 0.000000 1.000000 0.000000
usemtl SVGMat.019
s off
f 279//18 281//18 278//18
f 281//18 285//18 278//18
f 281//18 282//18 285//18
f 282//18 284//18 285//18
f 279//18 280//18 281//18
f 283//18 284//18 282//18
o Curve.017_path3435
v 0.668343 -0.000000 -0.824580
v 0.668343 -0.000000 -0.584810
v 0.867824 -0.000000 -0.584810
v 0.867824 -0.000000 -0.643072
v 1.401269 -0.000000 -0.643072
v 1.401269 -0.000000 -0.578086
v 1.663497 -0.000000 -0.578086
v 1.663497 -0.000000 -0.824580
vn 0.000000 1.000000 0.000000
usemtl SVGMat.018
s off
f 287//19 289//19 286//19
f 289//19 293//19 286//19
f 289//19 290//19 293//19
f 290//19 292//19 293//19
f 287//19 288//19 289//19
f 291//19 292//19 290//19
o Curve.016_path3433
v -1.460997 -0.000000 -1.093957
v -1.460997 -0.000000 -0.853802
v -1.184924 -0.000000 -0.853802
v -1.184924 -0.000000 -0.900774
v 0.401627 -0.000000 -0.900774
v 0.401627 -0.000000 -0.824582
v 0.668337 -0.000000 -0.824582
v 0.668337 -0.000000 -1.093489
vn 0.000000 1.000000 0.000000
usemtl SVGMat.017
s off
f 295//20 297//20 294//20
f 297//20 301//20 294//20
f 297//20 298//20 301//20
f 298//20 300//20 301//20
f 295//20 296//20 297//20
f 299//20 300//20 298//20
o Curve.015_path3431
v -5.218478 -0.000000 -0.853798
v -5.218478 -0.000000 -0.621638
v -5.011588 -0.000000 -0.621638
v -5.011588 -0.000000 -0.682567
v -4.483094 -0.000000 -0.682567
v -4.483094 -0.000000 -0.618597
v -4.222328 -0.000000 -0.618597
v -4.222328 -0.000000 -0.853798
vn 0.000000 1.000000 0.000000
usemtl SVGMat.016
s off
f 303//21 305//21 302//21
f 305//21 309//21 302//21
f 305//21 306//21 309//21
f 306//21 308//21 309//21
f 303//21 304//21 305//21
f 307//21 308//21 306//21
o Curve.014_path3429
v -4.222324 -0.000000 -1.093957
v -4.222324 -0.000000 -0.853802
v -3.946251 -0.000000 -0.853802
v -3.946251 -0.000000 -0.900774
v -2.359701 -0.000000 -0.900774
v -2.359701 -0.000000 -0.824582
v -2.092990 -0.000000 -0.824582
v -2.092990 -0.000000 -1.093489
vn 0.000000 1.000000 0.000000
usemtl SVGMat.015
s off
f 311//22 313//22 310//22
f 313//22 317//22 310//22
f 313//22 314//22 317//22
f 314//22 316//22 317//22
f 311//22 312//22 313//22
f 315//22 316//22 314//22
o Curve.013_path3427
v -5.759579 -0.000000 -2.796544
v -5.759579 -0.000000 -2.545573
v -5.497348 -0.000000 -2.545573
v -5.497348 -0.000000 -2.603829
v -3.872345 -0.000000 -2.587984
v -3.872345 -0.000000 -2.524467
v -3.605635 -0.000000 -2.524467
v -3.602465 -0.000000 -2.761685
vn 0.000000 1.000000 0.000000
usemtl SVGMat.014
s off
f 319//23 321//23 318//23
f 321//23 325//23 318//23
f 321//23 322//23 325//23
f 322//23 324//23 325//23
f 319//23 320//23 321//23
f 323//23 324//23 322//23
o Curve.012_path3425
v -5.141202 -0.000000 -4.517056
v -5.141202 -0.000000 -4.275511
v -4.934312 -0.000000 -4.275511
v -4.934312 -0.000000 -4.338902
v -4.405818 -0.000000 -4.338902
v -4.405818 -0.000000 -4.272346
v -4.145053 -0.000000 -4.272346
v -4.145053 -0.000000 -4.517056
vn 0.000000 1.000000 0.000000
usemtl SVGMat.013
s off
f 327//24 329//24 326//24
f 329//24 333//24 326//24
f 329//24 330//24 333//24
f 330//24 332//24 333//24
f 327//24 328//24 329//24
f 331//24 332//24 330//24
o Curve.011_path3423
v -6.136356 -0.000000 -4.275511
v -6.136356 -0.000000 -4.035739
v -5.936875 -0.000000 -4.035739
v -5.936875 -0.000000 -4.094002
v -5.403430 -0.000000 -4.094002
v -5.403430 -0.000000 -4.029016
v -5.141202 -0.000000 -4.029016
v -5.141202 -0.000000 -4.275511
vn 0.000000 1.000000 0.000000
usemtl SVGMat.012
s off
f 335//25 337//25 334//25
f 337//25 341//25 334//25
f 337//25 338//25 341//25
f 338//25 340//25 341//25
f 335//25 336//25 337//25
f 339//25 340//25 338//25
o Curve.010_path3421
v 2.367283 -0.000000 -4.176916
v 2.367283 -0.000000 -3.925945
v 2.629515 -0.000000 -3.925945
v 2.629515 -0.000000 -3.984200
v 4.162594 -0.000000 -3.984200
v 4.162594 -0.000000 -3.908009
v 4.429306 -0.000000 -3.908009
v 4.429306 -0.000000 -4.176916
vn 0.000000 1.000000 0.000000
usemtl SVGMat.011
s off
f 343//26 345//26 342//26
f 345//26 349//26 342//26
f 345//26 346//26 349//26
f 346//26 348//26 349//26
f 343//26 344//26 345//26
f 347//26 348//26 346//26
o Curve.009_path3419
v 3.420704 -0.000000 -2.635199
v 3.420704 -0.000000 -2.395428
v 3.620187 -0.000000 -2.395428
v 3.620187 -0.000000 -2.453690
v 4.153631 -0.000000 -2.453690
v 4.153631 -0.000000 -2.388703
v 4.415858 -0.000000 -2.388703
v 4.415858 -0.000000 -2.635199
vn 0.000000 1.000000 0.000000
usemtl SVGMat.010
s off
f 351//27 353//27 350//27
f 353//27 357//27 350//27
f 353//27 354//27 357//27
f 354//27 356//27 357//27
f 351//27 352//27 353//27
f 355//27 356//27 354//27
o Curve.008_path3417
v 2.407627 -0.000000 -2.904106
v 2.407627 -0.000000 -2.626245
v 2.629515 -0.000000 -2.626245
v 2.629515 -0.000000 -2.711390
v 3.153993 -0.000000 -2.711390
v 3.153993 -0.000000 -2.635199
v 3.420704 -0.000000 -2.635199
v 3.420704 -0.000000 -2.904106
vn 0.000000 1.000000 0.000000
usemtl SVGMat.009
s off
f 359//28 361//28 358//28
f 361//28 365//28 358//28
f 361//28 362//28 365//28
f 362//28 364//28 365//28
f 359//28 360//28 361//28
f 363//28 364//28 362//28
o Curve.007_rect3411
v -2.070571 -0.000000 -6.267640
v -2.069120 -0.000000 -5.660392
v -5.015682 -0.000000 -5.688210
v -5.015682 -0.000000 -6.218343
v -5.351888 -0.000000 -6.218343
v -5.351888 -0.000000 -5.691387
v -6.859832 -0.000000 -5.705626
v -6.974234 -0.000000 -6.185407
v -7.417853 -0.000000 -6.203794
v -7.413201 -0.000000 -4.483279
v -7.149620 -0.000000 -4.484082
v -6.778457 -0.000000 -3.140371
v -7.111977 -0.000000 -3.025454
v -7.077919 -0.000000 -2.677489
v -6.685237 -0.000000 -2.795630
v -6.301523 -0.000000 -1.318268
v -6.661944 -0.000000 -1.212317
v -6.537329 -0.000000 -0.859066
v -6.206506 -0.000000 -0.953979
v -5.849692 -0.000000 0.433743
v -6.435478 -0.000000 0.589698
v -6.352281 -0.000000 1.014885
v -5.765033 -0.000000 0.859817
v -5.064078 -0.000000 4.133896
v -5.564939 -0.000000 4.241634
v -5.574446 -0.000000 5.559638
v -4.270011 -0.000000 5.559638
v -4.325480 -0.000000 5.297178
v -0.613696 -0.000000 5.333578
v -0.613696 -0.000000 5.577555
v -0.407501 -0.000000 5.577555
v -0.407501 -0.000000 5.335483
v 1.954869 -0.000000 5.357285
v 1.954869 -0.000000 5.582039
v 2.179011 -0.000000 5.582039
v 2.179011 -0.000000 5.359358
v 4.554820 -0.000000 5.381279
v 4.554820 -0.000000 5.582039
v 4.787928 -0.000000 5.582039
v 4.787928 -0.000000 5.383438
v 7.154542 -0.000000 5.405275
v 7.153919 -0.000000 5.576405
v 7.372665 -0.000000 5.575290
v 7.373876 -0.000000 5.405994
v 7.521642 -0.000000 5.407336
v 7.521642 -0.000000 5.191837
v 7.375422 -0.000000 5.190506
v 7.398021 -0.000000 2.032315
v 6.348836 -0.000000 0.114268
v 6.348836 -0.000000 -5.137667
v 7.202795 -0.000000 -5.127443
v 7.220716 -0.000000 -5.528466
v 6.352372 -0.000000 -5.540548
v 6.352372 -0.000000 -6.191459
v 6.011695 -0.000000 -6.191459
v 6.011695 -0.000000 -5.545283
v 1.537193 -0.000000 -5.607512
v 1.537193 -0.000000 -6.257979
v 1.191696 -0.000000 -6.257979
v 1.191696 -0.000000 -5.612318
v -1.704791 -0.000000 -5.652601
v -1.707476 -0.000000 -6.258674
v -6.761829 -0.000000 -5.294641
v -5.820777 -0.000000 -5.283375
v -5.820777 -0.000000 -4.990437
v -3.868866 -0.000000 -4.964319
v -3.868866 -0.000000 -5.260003
v -3.554335 -0.000000 -5.256240
v -3.554335 -0.000000 -4.779706
v -1.510236 -0.000000 -4.757305
v -1.510236 -0.000000 -5.231752
v -0.965318 -0.000000 -5.225232
v -0.965318 -0.000000 -4.900305
v 1.896572 -0.000000 -4.865223
v 1.896572 -0.000000 -5.190966
v 2.315999 -0.000000 -5.185945
v 2.315999 -0.000000 -4.678296
v 4.360098 -0.000000 -4.655895
v 4.360098 -0.000000 -5.161469
v 6.152315 -0.000000 -5.140016
v 6.139751 -0.000000 -1.637492
v 4.155389 -0.000000 -1.637492
v 4.155389 -0.000000 -1.501216
v 6.139260 -0.000000 -1.501216
v 6.133303 -0.000000 0.158327
v 7.185652 -0.000000 2.092075
v 7.164865 -0.000000 5.188684
v -4.350967 -0.000000 5.084086
v -4.783461 -0.000000 2.989337
v -4.472610 -0.000000 2.989337
v -4.472610 -0.000000 3.097087
v -3.382223 -0.000000 3.097087
v -3.382223 -0.000000 2.412568
v -4.472610 -0.000000 2.412568
v -4.472610 -0.000000 2.843569
v -4.818718 -0.000000 2.843569
v -5.065720 -0.000000 1.570895
v -4.773619 -0.000000 1.570895
v -4.773619 -0.000000 1.673971
v -3.868111 -0.000000 1.673971
v -3.868111 -0.000000 1.570895
v -2.872705 -0.000000 1.585158
v -2.655181 -0.000000 1.584992
v -2.196805 -0.000000 1.500231
v 0.107639 -0.000000 1.504581
v 0.107639 -0.000000 1.617137
v 1.730549 -0.000000 1.617137
v 1.730549 -0.000000 1.507638
v 2.003146 -0.000000 1.508154
v 1.994119 -0.000000 2.955312
v 1.721773 -0.000000 2.944417
v 1.721773 -0.000000 2.830267
v 0.524897 -0.000000 2.830267
v 0.524897 -0.000000 3.197767
v 1.721773 -0.000000 3.197767
v 1.721773 -0.000000 3.093926
v 1.969460 -0.000000 3.093926
v 1.969460 -0.000000 3.199505
v 2.248302 -0.000000 3.199505
v 2.248302 -0.000000 0.355852
v 2.241547 -0.000000 0.250531
v 2.234676 -0.000000 0.176638
v 2.201177 -0.000000 0.057243
v 2.453754 -0.000000 0.057243
v 2.453754 -0.000000 0.159559
v 3.659833 -0.000000 0.175405
v 3.659833 -0.000000 -0.174845
v 2.453754 -0.000000 -0.174845
v 2.453754 -0.000000 -0.076240
v 2.181612 -0.000000 -0.076240
v 2.140902 -0.000000 -0.354113
v 2.147866 -0.000000 -0.354113
v 2.147866 -0.000000 -1.529187
v 2.509223 -0.000000 -1.525568
v 2.504319 -0.000000 -1.229417
v 3.544705 -0.000000 -1.223939
v 3.545067 -0.000000 -1.446211
v 2.740319 -0.000000 -1.446643
v 2.727337 -0.000000 -1.675111
v 2.365392 -0.000000 -1.675711
v 2.364205 -0.000000 -2.183946
v 2.184324 -0.000000 -2.179991
v 2.185919 -0.000000 -1.690370
v -5.827116 -0.000000 -1.786433
v -5.686295 -0.000000 -5.281769
v -4.057139 -0.000000 -5.262256
v -4.057139 -0.000000 -5.195965
v -5.686295 -0.000000 -5.216843
v -3.375030 -0.000000 -5.254083
v -1.689542 -0.000000 -5.233910
v -1.689542 -0.000000 -5.030696
v -1.743332 -0.000000 -5.031558
v -1.743332 -0.000000 -5.102393
v -3.307776 -0.000000 -5.124805
v -3.307776 -0.000000 -5.033320
v -3.375030 -0.000000 -5.035178
v -0.786013 -0.000000 -5.223087
v 1.717266 -0.000000 -5.193112
v 1.717266 -0.000000 -5.087902
v -0.786013 -0.000000 -5.117746
v 2.495305 -0.000000 -5.183799
v 4.180792 -0.000000 -5.163628
v 4.180792 -0.000000 -4.929286
v 4.127002 -0.000000 -4.930149
v 4.127002 -0.000000 -5.000983
v 2.562557 -0.000000 -5.023396
v 2.562557 -0.000000 -4.931911
v 2.495305 -0.000000 -4.933768
v -5.824002 -0.000000 -1.608966
v 1.927065 -0.000000 -1.531204
v 1.923895 -0.000000 -0.599382
v 1.921471 -0.000000 -0.459504
v 2.041183 -0.000000 0.357455
v 2.041183 -0.000000 1.319918
v 1.730549 -0.000000 1.321296
v 1.730549 -0.000000 1.221002
v 0.107639 -0.000000 1.221002
v 0.107639 -0.000000 1.328536
v -2.225241 -0.000000 1.338927
v -2.290216 -0.000000 1.344500
v -2.648828 -0.000000 1.406981
v -3.189262 -0.000000 1.414628
v -3.871276 -0.000000 1.411452
v -3.868111 -0.000000 0.938981
v -4.764652 -0.000000 0.912086
v -4.773619 -0.000000 1.378180
v -5.109225 -0.000000 1.378180
vn 0.000000 1.000000 0.000000
vn 0.000000 0.000000 1.000000
usemtl SVGMat.008
s off
f 367//29 427//29 366//29
f 367//29 426//29 427//29
f 425//29 423//29 424//29
f 425//29 422//29 423//29
f 371//29 369//29 370//29
f 371//29 368//29 369//29
f 375//29 373//29 374//29
f 421//29 419//29 420//29
f 421//29 418//29 419//29
f 375//29 372//29 373//29
f 375//29 428//29 372//29
f 428//29 371//29 372//29
f 428//29 368//29 371//29
f 428//29 367//29 368//29
f 428//29 426//29 367//29
f 428//29 425//29 426//29
f 428//29 422//29 425//29
f 428//29 421//29 422//29
f 428//29 418//29 421//29
f 428//29 417//29 418//29
f 428//29 510//29 417//29
f 510//29 527//29 417//29
f 527//29 416//29 417//29
f 375//29 376//29 428//29
f 376//29 509//29 428//29
f 429//29 510//29 428//29
f 430//29 510//29 429//29
f 430//29 513//29 510//29
f 511//29 433//29 510//29
f 433//29 527//29 510//29
f 512//29 432//29 511//29
f 432//30 433//30 511//30
f 512//29 431//29 432//29
f 434//29 514//29 433//29
f 514//29 515//29 433//29
f 515//29 527//29 433//29
f 434//29 521//29 514//29
f 516//29 436//29 515//29
f 436//29 522//29 515//29
f 522//29 527//29 515//29
f 516//29 435//29 436//29
f 437//29 522//29 436//29
f 438//29 522//29 437//29
f 438//29 525//29 522//29
f 523//29 440//29 522//29
f 440//29 527//29 522//29
f 430//29 512//29 513//29
f 430//29 431//29 512//29
f 524//29 440//29 523//29
f 524//29 439//29 440//29
f 441//29 526//29 440//29
f 526//29 527//29 440//29
f 442//29 526//29 441//29
f 442//29 533//29 526//29
f 528//29 444//29 527//29
f 444//29 415//29 527//29
f 415//29 416//29 527//29
f 528//29 443//29 444//29
f 445//29 415//29 444//29
f 446//29 415//29 445//29
f 446//29 414//29 415//29
f 520//29 518//29 519//29
f 438//29 524//29 525//29
f 520//29 517//29 518//29
f 438//29 439//29 524//29
f 434//29 520//29 521//29
f 434//29 517//29 520//29
f 434//29 516//29 517//29
f 434//29 435//29 516//29
f 532//29 530//29 531//29
f 532//29 529//29 530//29
f 442//29 532//29 533//29
f 442//29 529//29 532//29
f 442//29 528//29 529//29
f 442//29 443//29 528//29
f 377//29 509//29 376//29
f 378//29 380//29 377//29
f 380//29 509//29 377//29
f 379//29 380//29 378//29
f 381//29 509//29 380//29
f 507//29 505//29 506//29
f 508//29 505//29 507//29
f 381//29 534//29 509//29
f 534//29 508//29 509//29
f 534//29 505//29 508//29
f 534//29 504//29 505//29
f 534//29 498//29 504//29
f 498//29 499//29 504//29
f 499//29 503//29 504//29
f 448//29 446//29 447//29
f 448//29 449//29 446//29
f 449//29 414//29 446//29
f 381//29 552//29 534//29
f 535//29 498//29 534//29
f 536//29 498//29 535//29
f 536//29 497//29 498//29
f 500//29 503//29 499//29
f 450//29 414//29 449//29
f 500//29 502//29 503//29
f 500//29 501//29 502//29
f 382//29 384//29 381//29
f 384//29 552//29 381//29
f 383//29 384//29 382//29
f 385//29 552//29 384//29
f 537//29 497//29 536//29
f 538//29 496//29 537//29
f 496//29 497//29 537//29
f 538//29 495//29 496//29
f 494//29 492//29 493//29
f 494//29 491//29 492//29
f 538//29 488//29 495//29
f 488//29 494//29 495//29
f 488//29 489//29 494//29
f 489//29 491//29 494//29
f 538//29 487//29 488//29
f 490//29 491//29 489//29
f 450//29 413//29 414//29
f 451//29 413//29 450//29
f 538//29 486//29 487//29
f 538//29 485//29 486//29
f 538//29 484//29 485//29
f 539//29 484//29 538//29
f 386//29 388//29 385//29
f 388//29 552//29 385//29
f 387//29 388//29 386//29
f 389//29 552//29 388//29
f 551//29 549//29 550//29
f 551//29 548//29 549//29
f 543//29 541//29 542//29
f 543//29 540//29 541//29
f 540//29 474//29 539//29
f 474//29 484//29 539//29
f 543//29 474//29 540//29
f 544//29 474//29 543//29
f 545//29 474//29 544//29
f 546//29 474//29 545//29
f 389//29 462//29 552//29
f 462//29 551//29 552//29
f 462//29 548//29 551//29
f 547//29 474//29 546//29
f 462//29 547//29 548//29
f 462//29 469//29 547//29
f 469//29 473//29 547//29
f 473//29 474//29 547//29
f 462//29 463//29 469//29
f 463//29 466//29 469//29
f 466//29 468//29 469//29
f 470//29 473//29 469//29
f 471//29 473//29 470//29
f 471//29 472//29 473//29
f 475//29 484//29 474//29
f 389//29 461//29 462//29
f 464//29 466//29 463//29
f 464//29 465//29 466//29
f 467//29 468//29 466//29
f 451//29 412//29 413//29
f 452//29 412//29 451//29
f 460//29 458//29 459//29
f 460//29 457//29 458//29
f 479//29 477//29 478//29
f 479//29 476//29 477//29
f 389//29 454//29 461//29
f 454//29 460//29 461//29
f 454//29 455//29 460//29
f 455//29 457//29 460//29
f 479//29 475//29 476//29
f 479//29 481//29 475//29
f 481//29 482//29 475//29
f 482//29 484//29 475//29
f 389//29 453//29 454//29
f 456//29 457//29 455//29
f 479//29 480//29 481//29
f 483//29 484//29 482//29
f 390//29 453//29 389//29
f 391//29 453//29 390//29
f 391//29 393//29 453//29
f 393//29 452//29 453//29
f 393//29 412//29 452//29
f 393//29 411//29 412//29
f 393//29 410//29 411//29
f 391//29 392//29 393//29
f 394//29 409//29 393//29
f 409//29 410//29 393//29
f 395//29 397//29 394//29
f 397//29 409//29 394//29
f 395//29 396//29 397//29
f 398//29 409//29 397//29
f 399//29 401//29 398//29
f 401//29 409//29 398//29
f 399//29 400//29 401//29
f 402//29 409//29 401//29
f 403//29 405//29 402//29
f 405//29 409//29 402//29
f 403//29 404//29 405//29
f 406//29 409//29 405//29
f 407//29 409//29 406//29
f 407//29 408//29 409//29
o Curve.006_path3395
v -2.250948 -0.000000 -2.700270
v -2.250948 -0.000000 -2.468109
v -2.044058 -0.000000 -2.468109
v -2.044058 -0.000000 -2.529038
v -1.515563 -0.000000 -2.529038
v -1.515563 -0.000000 -2.465068
v -1.254799 -0.000000 -2.465068
v -1.254799 -0.000000 -2.700270
vn 0.000000 1.000000 0.000000
usemtl SVGMat.007
s off
f 554//31 556//31 553//31
f 556//31 560//31 553//31
f 556//31 557//31 560//31
f 557//31 559//31 560//31
f 554//31 555//31 556//31
f 558//31 559//31 557//31
o Curve.005_path3393
v 0.874546 -0.000000 -2.671053
v 0.874546 -0.000000 -2.431282
v 1.074027 -0.000000 -2.431282
v 1.074027 -0.000000 -2.489543
v 1.607472 -0.000000 -2.489543
v 1.607472 -0.000000 -2.424558
v 1.869700 -0.000000 -2.424558
v 1.869700 -0.000000 -2.671053
vn 0.000000 1.000000 0.000000
usemtl SVGMat.006
s off
f 562//32 564//32 561//32
f 564//32 568//32 561//32
f 564//32 565//32 568//32
f 565//32 567//32 568//32
f 562//32 563//32 564//32
f 566//32 567//32 565//32
o Curve.004_path3391
v -1.254794 -0.000000 -2.940429
v -1.254794 -0.000000 -2.700274
v -0.978720 -0.000000 -2.700274
v -0.978720 -0.000000 -2.747246
v 0.607830 -0.000000 -2.747246
v 0.607830 -0.000000 -2.671053
v 0.874540 -0.000000 -2.671053
v 0.874540 -0.000000 -2.939961
vn 0.000000 1.000000 0.000000
usemtl SVGMat.005
s off
f 570//33 572//33 569//33
f 572//33 576//33 569//33
f 572//33 573//33 576//33
f 573//33 575//33 576//33
f 570//33 571//33 572//33
f 574//33 575//33 573//33
o Curve.003_path3389
v -3.370539 -0.000000 -4.248624
v -3.370539 -0.000000 -3.997653
v -3.108308 -0.000000 -3.997653
v -3.108308 -0.000000 -4.055908
v -1.575228 -0.000000 -4.055908
v -1.575228 -0.000000 -3.979716
v -1.308517 -0.000000 -3.979716
v -1.308517 -0.000000 -4.248624
vn 0.000000 1.000000 0.000000
usemtl SVGMat.004
s off
f 578//34 580//34 577//34
f 580//34 584//34 577//34
f 580//34 581//34 584//34
f 581//34 583//34 584//34
f 578//34 579//34 580//34
f 582//34 583//34 581//34
o Curve.002_rect3380
v 1.026957 -0.000000 -4.642543
v 1.026957 -0.000000 -4.400999
v 1.233847 -0.000000 -4.400999
v 1.233847 -0.000000 -4.464390
v 1.762341 -0.000000 -4.464390
v 1.762341 -0.000000 -4.397835
v 2.023106 -0.000000 -4.397835
v 2.023106 -0.000000 -4.642543
vn 0.000000 1.000000 0.000000
usemtl SVGMat.003
s off
f 586//35 588//35 585//35
f 588//35 592//35 585//35
f 588//35 589//35 592//35
f 589//35 591//35 592//35
f 586//35 587//35 588//35
f 590//35 591//35 589//35
o Curve.001_rect3374
v 0.031802 -0.000000 -4.400999
v 0.031802 -0.000000 -4.161228
v 0.231284 -0.000000 -4.161228
v 0.231284 -0.000000 -4.219490
v 0.764729 -0.000000 -4.219490
v 0.764729 -0.000000 -4.154504
v 1.026957 -0.000000 -4.154504
v 1.026957 -0.000000 -4.400999
vn 0.000000 1.000000 0.000000
usemtl SVGMat.002
s off
f 594//36 596//36 593//36
f 596//36 600//36 593//36
f 596//36 597//36 600//36
f 597//36 599//36 600//36
f 594//36 595//36 596//36
f 598//36 599//36 597//36
o Curve_rect3357
v -0.981274 -0.000000 -4.669907
v -0.981274 -0.000000 -4.392046
v -0.759387 -0.000000 -4.392046
v -0.759387 -0.000000 -4.477191
v -0.234909 -0.000000 -4.477191
v -0.234909 -0.000000 -4.400999
v 0.031802 -0.000000 -4.400999
v 0.031802 -0.000000 -4.669907
vn 0.000000 1.000000 0.000000
usemtl SVGMat.001
s off
f 602//37 604//37 601//37
f 604//37 608//37 601//37
f 604//37 605//37 608//37
f 605//37 607//37 608//37
f 602//37 603//37 604//37
f 606//37 607//37 605//37
