; Engine configuration file.
; It's best edited using the editor UI and not directly,
; since the parameters that go here are not all obvious.
;
; Format:
;   [section] ; section goes between []
;   param=value ; assign values to parameters

config_version=4

_global_script_classes=[  ]
_global_script_class_icons={

}

[application]

config/name="3v2"
run/main_scene="res://scenes/1.tscn"
config/icon="res://icon.png"

[display]

window/size/height=576
window/size/fullscreen=true

[rendering]

quality/driver/driver_name="GLES2"
vram_compression/import_etc=true
vram_compression/import_etc2=false
environment/default_clear_color=Color( 0.411765, 0.380392, 0.356863, 1 )
environment/default_environment="res://default_env.tres"
