# Blender v2.79 (sub 0) OBJ File: 'palete.blend'
# www.blender.org
mtllib palete.mtl
o Cube.001
v 1.000000 1.200000 -12.000000
v 1.000000 1.200000 0.000000
v 0.000000 1.200000 -0.000000
v 0.000000 1.200000 -12.000000
v 1.000000 1.400000 -11.999999
v 1.000000 1.400000 0.000001
v -0.000000 1.400000 -0.000000
v -0.000000 1.400000 -12.000000
v 1.750000 1.400000 -11.999999
v 1.750000 1.400000 0.000001
v 2.750000 1.400000 -11.999999
v 2.750000 1.400000 0.000001
v 1.750000 1.200000 -11.999999
v 1.750000 1.200000 0.000001
v 2.750000 1.200000 -11.999999
v 2.750000 1.200000 0.000001
v 3.500000 1.400000 -11.999999
v 3.500000 1.400000 0.000001
v 4.500000 1.400000 -11.999999
v 4.500000 1.400000 0.000001
v 3.500000 1.200000 -11.999999
v 3.500000 1.200000 0.000001
v 4.500000 1.200000 -11.999999
v 4.500000 1.200000 0.000001
v 5.250000 1.400000 -11.999999
v 5.250000 1.400000 0.000001
v 6.250000 1.400000 -11.999999
v 6.250000 1.400000 0.000001
v 5.250000 1.200000 -11.999999
v 5.250000 1.200000 0.000001
v 6.250000 1.200000 -11.999999
v 6.250000 1.200000 0.000001
v 7.000000 1.400000 -11.999999
v 7.000000 1.400000 0.000001
v 8.000000 1.400000 -11.999999
v 8.000000 1.400000 0.000001
v 7.000000 1.200000 -11.999999
v 7.000000 1.200000 0.000001
v 8.000000 1.200000 -11.999999
v 8.000000 1.200000 0.000001
vn 0.0000 -1.0000 0.0000
vn 0.0000 1.0000 -0.0000
vn 1.0000 0.0000 0.0000
vn -0.0000 -0.0000 1.0000
vn -1.0000 -0.0000 -0.0000
vn 0.0000 0.0000 -1.0000
usemtl Material
s off
f 1//1 2//1 3//1 4//1
f 5//2 8//2 7//2 6//2
f 1//3 5//3 6//3 2//3
f 2//4 6//4 7//4 3//4
f 3//5 7//5 8//5 4//5
f 5//6 1//6 4//6 8//6
f 10//2 12//2 11//2 9//2
f 12//4 10//4 14//4 16//4
f 14//1 13//1 15//1 16//1
f 11//3 12//3 16//3 15//3
f 9//6 11//6 15//6 13//6
f 10//5 9//5 13//5 14//5
f 18//1 17//1 19//1 20//1
f 18//6 20//6 24//6 22//6
f 21//2 22//2 24//2 23//2
f 19//4 17//4 21//4 23//4
f 20//5 19//5 23//5 24//5
f 17//3 18//3 22//3 21//3
f 26//2 28//2 27//2 25//2
f 27//3 28//3 32//3 31//3
f 30//1 29//1 31//1 32//1
f 26//5 25//5 29//5 30//5
f 25//6 27//6 31//6 29//6
f 28//4 26//4 30//4 32//4
f 34//1 33//1 35//1 36//1
f 35//4 33//4 37//4 39//4
f 37//2 38//2 40//2 39//2
f 36//5 35//5 39//5 40//5
f 33//3 34//3 38//3 37//3
f 34//6 36//6 40//6 38//6
o Cube
v 1.000000 0.000000 -12.000000
v 1.000000 0.000000 0.000000
v 0.000000 0.000000 -0.000000
v 0.000000 0.000000 -12.000000
v 1.000000 0.200000 -11.999999
v 1.000000 0.200000 0.000001
v -0.000000 0.200000 -0.000000
v -0.000000 0.200000 -12.000000
v 1.000000 1.000000 -11.000000
v -0.000001 1.000000 -11.000000
v 3.500000 0.200000 -11.999999
v 3.500000 0.200000 0.000001
v 4.500000 0.200000 -11.999999
v 4.500000 0.200000 0.000001
v 3.500000 0.000000 -11.999999
v 3.500000 0.000000 0.000001
v 4.500000 0.000000 -11.999999
v 4.500000 0.000000 0.000001
v -0.000001 0.200000 -11.000000
v 1.000000 0.200000 -11.000000
v -0.000000 1.000000 -12.000000
v 1.000000 1.000000 -11.999999
v 7.000000 0.200000 -11.999999
v 7.000000 0.200000 0.000001
v 8.000000 0.200000 -11.999999
v 8.000000 0.200000 0.000001
v 7.000000 0.000000 -11.999999
v 7.000000 0.000000 0.000001
v 8.000000 0.000000 -11.999999
v 8.000000 0.000000 0.000001
v 3.500000 1.000000 -11.999999
v 4.500000 1.000000 -11.999999
v 3.500000 0.200000 -11.000000
v 4.500000 0.200000 -11.000000
v 3.500000 1.000000 -11.000000
v 4.500000 1.000000 -11.000000
v 7.000000 1.000000 -11.999999
v 8.000000 1.000000 -11.999999
v 7.000000 0.200000 -11.000000
v 8.000000 0.200000 -11.000000
v 7.000000 1.000000 -11.000000
v 8.000000 1.000000 -11.000000
v 7.000000 1.000000 0.000001
v 8.000000 1.000000 0.000001
v 7.000000 0.200000 -1.000000
v 8.000000 0.200000 -1.000000
v 7.000000 1.000000 -1.000000
v 8.000000 1.000000 -1.000000
v 3.500000 1.000000 0.000001
v 4.500000 1.000000 0.000001
v 3.500000 0.200000 -1.000000
v 4.500000 0.200000 -1.000000
v 3.500000 1.000000 -1.000000
v 4.500000 1.000000 -1.000000
v 1.000000 1.000000 0.000001
v -0.000000 1.000000 -0.000000
v 1.000000 0.200000 -1.000000
v 0.000001 0.200000 -1.000000
v 1.000000 1.000000 -1.000000
v 0.000001 1.000000 -1.000000
v 1.000000 1.000000 -5.500000
v 1.000000 1.000000 -6.500000
v 0.000001 1.000000 -6.500000
v 0.000001 1.000000 -5.500000
v 1.000000 0.200000 -5.500000
v 0.000001 0.200000 -5.500000
v 1.000000 0.200000 -6.500000
v 0.000001 0.200000 -6.500000
v 10000.000000 1.000000 -4.500000
v 10000.000000 1.000000 -5.500000
v 3.500000 1.000000 -5.500000
v 3.500000 1.000000 -6.500000
v 4.500000 1.000000 -5.500000
v 4.500000 1.000000 -6.500000
v 3.500000 0.200000 -5.500000
v 3.500000 0.200000 -6.500000
v 4.500000 0.200000 -5.500000
v 4.500000 0.200000 -6.500000
v 7.000000 1.000000 -5.500000
v 7.000000 1.000000 -6.500000
v 8.000000 1.000000 -5.500000
v 8.000000 1.000000 -6.500000
v 7.000000 0.200000 -5.500000
v 7.000000 0.200000 -6.500000
v 8.000000 0.200000 -5.500000
v 8.000000 0.200000 -6.500000
v 8.000000 1.200000 0.000001
v 8.000000 1.200000 -1.000000
v 0.000000 1.000000 0.000001
v 0.000000 1.000000 -1.000000
v 0.000000 1.200000 0.000001
v 0.000000 1.200000 -1.000000
v 0.000001 1.200000 -6.500000
v 0.000001 1.200000 -5.500000
v 8.000000 1.000000 -6.500000
v 8.000000 1.000000 -5.500000
v 8.000000 1.200000 -6.500000
v 8.000000 1.200000 -5.500000
v -0.000001 1.200000 -11.000000
v -0.000000 1.200000 -12.000000
v 8.000000 1.000000 -11.000000
v 8.000000 1.000000 -12.000000
v 8.000000 1.200000 -11.000000
v 8.000000 1.200000 -12.000000
vn 0.0000 -1.0000 0.0000
vn 0.0000 1.0000 -0.0000
vn 1.0000 0.0000 0.0000
vn -0.0000 -0.0000 1.0000
vn -1.0000 -0.0000 -0.0000
vn 0.0000 0.0000 -1.0000
usemtl Material
s off
f 41//7 42//7 43//7 44//7
f 45//8 48//8 47//8 46//8
f 41//9 45//9 46//9 42//9
f 42//10 46//10 47//10 43//10
f 43//11 47//11 48//11 44//11
f 45//12 41//12 44//12 48//12
f 45//10 62//10 61//10 48//10
f 61//7 62//7 49//7 50//7
f 45//8 48//8 59//8 60//8
f 62//11 45//11 60//11 49//11
f 60//12 59//12 50//12 49//12
f 52//7 51//7 53//7 54//7
f 52//12 54//12 58//12 56//12
f 55//8 56//8 58//8 57//8
f 53//10 51//10 55//10 57//10
f 54//11 53//11 57//11 58//11
f 51//9 52//9 56//9 55//9
f 48//9 61//9 50//9 59//9
f 64//7 63//7 65//7 66//7
f 65//10 63//10 67//10 69//10
f 67//8 68//8 70//8 69//8
f 66//11 65//11 69//11 70//11
f 63//9 64//9 68//9 67//9
f 64//12 66//12 70//12 68//12
f 53//9 72//9 76//9 74//9
f 73//10 74//10 76//10 75//10
f 51//7 53//7 74//7 73//7
f 71//11 51//11 73//11 75//11
f 72//8 71//8 75//8 76//8
f 72//12 53//12 51//12 71//12
f 65//9 78//9 82//9 80//9
f 79//10 80//10 82//10 81//10
f 63//7 65//7 80//7 79//7
f 77//11 63//11 79//11 81//11
f 78//8 77//8 81//8 82//8
f 78//12 65//12 63//12 77//12
f 66//7 64//7 85//7 86//7
f 86//12 85//12 87//12 88//12
f 64//11 83//11 87//11 85//11
f 84//9 66//9 86//9 88//9
f 83//8 84//8 88//8 87//8
f 83//10 64//10 66//10 84//10
f 52//11 89//11 93//11 91//11
f 92//12 91//12 93//12 94//12
f 90//9 54//9 92//9 94//9
f 89//8 90//8 94//8 93//8
f 54//7 52//7 91//7 92//7
f 89//10 52//10 54//10 90//10
f 46//11 95//11 99//11 97//11
f 98//10 97//10 99//10 100//10
f 96//9 47//9 98//9 100//9
f 95//7 96//7 100//7 99//7
f 47//8 46//8 97//8 98//8
f 95//12 46//12 47//12 96//12
f 101//7 104//7 103//7 102//7
f 107//11 105//11 101//11 102//11
f 105//8 107//8 108//8 106//8
f 106//9 108//9 103//9 104//9
f 105//12 106//12 104//12 101//12
f 108//10 107//10 102//10 103//10
f 112//9 111//9 115//9 116//9
f 84//10 127//10 131//10 129//10
f 116//8 115//8 117//8 118//8
f 111//12 113//12 117//12 115//12
f 114//10 112//10 116//10 118//10
f 113//11 114//11 118//11 117//11
f 112//7 114//7 113//7 111//7
f 121//10 119//10 123//10 125//10
f 123//7 124//7 126//7 125//7
f 122//9 121//9 125//9 126//9
f 119//11 120//11 124//11 123//11
f 120//12 122//12 126//12 124//12
f 122//8 120//8 119//8 121//8
f 130//11 129//11 131//11 132//11
f 88//7 84//7 129//7 130//7
f 128//12 88//12 130//12 132//12
f 127//8 128//8 132//8 131//8
f 134//10 104//10 136//10 138//10
f 136//9 135//9 137//9 138//9
f 133//8 134//8 138//8 137//8
f 104//7 103//7 135//7 136//7
f 103//12 133//12 137//12 135//12
f 104//11 134//11 133//11 103//11
f 61//12 140//12 144//12 142//12
f 141//9 142//9 144//9 143//9
f 50//7 61//7 142//7 141//7
f 139//10 50//10 141//10 143//10
f 140//8 139//8 143//8 144//8
f 88//9 128//9 127//9 84//9
f 140//11 61//11 50//11 139//11
l 110 109
