# Blender v2.63 (sub 0) OBJ File: 'centipede.blend'
# www.blender.org
mtllib centipede.mtl
o Plane
v 0.200000 15.891279 -7.905793
v 6.225001 8.647426 -0.162925
v 0.200000 17.427725 -7.905793
v 0.200000 17.924297 -6.783650
v 0.200000 15.891279 -4.450877
v 0.200000 10.633998 -5.818966
v 0.200000 10.011881 -7.974374
v 0.200000 9.324570 -7.974374
v 0.200000 8.647426 -6.717600
v 0.200000 0.000000 -6.717600
v 6.225001 15.891279 -7.905793
v 0.200000 8.647426 -0.162925
v 6.225001 17.427725 -7.905793
v 6.225001 17.924297 -6.783650
v 6.225001 15.891279 -4.450877
v 6.225001 10.633998 -5.818966
v 6.225001 10.011881 -7.974374
v 6.225001 9.324570 -7.974374
v 6.225001 8.647426 -6.717600
v 6.225001 0.000000 -6.717600
v 6.225001 0.590143 -0.162925
v 0.200000 0.590143 -0.162925
v 6.225001 0.590143 -5.598135
v 0.200000 0.590143 -5.598135
usemtl 
s off
f 5 1 11 15
f 17 18 8 7
f 1 3 13 11
f 18 19 9 8
f 19 9 12 2
f 19 20 10 9
f 14 13 3 4
f 15 16 6 5
f 16 17 7 6
f 21 22 24 23
o Cube.001
v 6.225000 0.000000 0.000000
v 6.225000 8.500000 -6.850000
v 6.225000 0.000000 -6.850000
v 6.225000 14.225000 0.000000
v 6.225000 10.475000 -7.050000
v 6.225000 9.200000 -8.125000
v 6.225000 10.100000 -8.125000
v 6.225000 13.775000 -6.150000
v 6.225000 18.100000 -6.725000
v 6.225000 15.875000 -8.000000
v 6.225000 17.575001 -8.000000
v 6.425000 0.000000 0.000000
v 6.425000 8.500000 -6.850000
v 6.425000 0.000000 -6.850000
v 6.425000 14.225000 0.000000
v 6.425000 10.475000 -7.050000
v 6.425000 9.200000 -8.125000
v 6.425000 10.100000 -8.125000
v 6.425000 13.775000 -6.150000
v 6.425000 18.100000 -6.725000
v 6.425000 15.875000 -8.000000
v 6.425000 17.575001 -8.000000
usemtl Material
s off
f 26 25 27
f 25 26 28
f 29 28 26
f 30 29 26
f 29 30 31
f 28 29 32
f 28 32 33
f 34 33 32
f 33 34 35
f 38 36 37
f 36 39 37
f 40 37 39
f 41 37 40
f 40 42 41
f 39 43 40
f 39 44 43
f 45 43 44
f 44 46 45
f 40 43 32 29
f 27 25 36 38
f 45 46 35 34
f 37 41 30 26
f 26 27 38 37
f 33 35 46 44
f 25 28 39 36
f 28 33 44 39
f 41 42 31 30
f 43 45 34 32
f 29 31 42 40
o Cube
v 0.000000 0.000000 0.000000
v 0.000000 8.500000 -6.850000
v 0.000000 0.000000 -6.850000
v 0.000000 14.225000 0.000000
v 0.000000 10.475000 -7.050000
v 0.000000 9.200000 -8.125000
v 0.000000 10.100000 -8.125000
v 0.000000 13.775000 -6.150000
v 0.000000 18.100000 -6.725000
v 0.000000 15.875000 -8.000000
v 0.000000 17.575001 -8.000000
v 0.200000 0.000000 0.000000
v 0.200000 8.500000 -6.850000
v 0.200000 0.000000 -6.850000
v 0.200000 14.225000 0.000000
v 0.200000 10.475000 -7.050000
v 0.200000 9.200000 -8.125000
v 0.200000 10.100000 -8.125000
v 0.200000 13.775000 -6.150000
v 0.200000 18.100000 -6.725000
v 0.200000 15.875000 -8.000000
v 0.200000 17.575001 -8.000000
usemtl Material
s off
f 48 47 49
f 47 48 50
f 51 50 48
f 52 51 48
f 51 52 53
f 50 51 54
f 50 54 55
f 56 55 54
f 55 56 57
f 60 58 59
f 58 61 59
f 62 59 61
f 63 59 62
f 62 64 63
f 61 65 62
f 61 66 65
f 67 65 66
f 66 68 67
f 62 65 54 51
f 49 47 58 60
f 67 68 57 56
f 59 63 52 48
f 48 49 60 59
f 55 57 68 66
f 47 50 61 58
f 50 55 66 61
f 63 64 53 52
f 65 67 56 54
f 51 53 64 62
