# Blender v2.66 (sub 1) OBJ File: 'apb_cm.blend'
# www.blender.org
mtllib apb_cm.mtl
o Cube.002
v 6.100000 16.700001 -0.200000
v 5.900000 16.563000 -0.200000
v 6.365000 8.677200 -0.200000
v 5.017700 16.243000 -0.200000
v 4.800000 14.626600 -0.200000
v 8.500000 0.000000 -0.200000
v 8.500000 8.300000 -0.200000
v 6.207500 16.888500 -0.200000
v 6.280600 17.062500 -0.200000
v 6.275000 17.292601 -0.200000
v 6.213200 17.506001 -0.200000
v 6.056100 17.708000 -0.200000
v 5.870800 17.837000 -0.200000
v 5.601500 17.893200 -0.200000
v 6.100000 16.700001 -6.300000
v 5.900000 16.563000 -6.300000
v 6.365000 8.677200 -6.300000
v 5.017700 16.243000 -6.300000
v 4.800000 14.626600 -6.300000
v 8.500000 0.000000 -6.300000
v 8.500000 8.300000 -6.300000
v 6.207500 16.888500 -6.300000
v 6.280600 17.062500 -6.300000
v 6.275000 17.292601 -6.300000
v 6.213200 17.506001 -6.300000
v 6.056100 17.708000 -6.300000
v 5.870800 17.837000 -6.300000
v 5.601500 17.893200 -6.300000
usemtl None
s off
f 14 13 27 28
f 3 7 21 17
f 10 9 23 24
f 7 6 20 21
f 9 8 22 23
f 2 4 18 16
f 8 1 15 22
f 4 5 19 18
f 1 2 16 15
f 12 11 25 26
f 13 12 26 27
f 5 3 17 19
f 11 10 24 25
o Cube.001
v 8.652000 0.000000 -6.300000
v 0.000000 0.000000 -6.300000
v 8.652000 8.400000 -6.300000
v 6.550000 8.785500 -6.300000
v 0.000000 13.468600 -6.300000
v 4.970000 14.683000 -6.300000
v 2.182800 17.175400 -6.300000
v 5.151400 16.080000 -6.300000
v 5.300000 18.000000 -6.300000
v 5.842113 16.379957 -6.300000
v 5.716520 18.069550 -6.300000
v 6.130000 16.488600 -6.300000
v 5.928800 18.010900 -6.300000
v 6.313500 16.680000 -6.300000
v 6.213900 17.821100 -6.300000
v 6.477000 17.191299 -6.300000
v 6.406400 17.538700 -6.300000
v 8.652000 0.000000 -6.500001
v 0.000000 0.000000 -6.500001
v 8.652000 8.400000 -6.500000
v 6.550000 8.785500 -6.500000
v -0.000000 13.468600 -6.500000
v 4.970000 14.683000 -6.500000
v 2.182800 17.175400 -6.500000
v 5.151400 16.080000 -6.500000
v 5.300000 18.000000 -6.500000
v 5.842113 16.379957 -6.500000
v 5.716520 18.069550 -6.500000
v 6.130000 16.488600 -6.500000
v 5.928800 18.010900 -6.500000
v 6.313500 16.680000 -6.500000
v 6.213900 17.821100 -6.500000
v 6.477000 17.191299 -6.500000
v 6.406400 17.538700 -6.500000
usemtl 01
s off
f 31 30 29
f 31 32 30
f 33 30 32
f 34 33 32
f 33 34 35
f 36 35 34
f 35 36 37
f 38 37 36
f 37 38 39
f 38 40 41 39
f 40 42 43 41
f 42 44 45 43
f 48 46 47
f 48 47 49
f 50 49 47
f 51 49 50
f 50 52 51
f 53 51 52
f 52 54 53
f 55 53 54
f 54 56 55
f 55 56 58 57
f 57 58 60 59
f 59 60 62 61
f 36 34 51 53
f 44 42 59 61
f 30 33 50 47
f 31 29 46 48
f 34 32 49 51
f 41 43 60 58
f 32 31 48 49
f 37 39 56 54
f 42 40 57 59
f 35 37 54 52
f 33 35 52 50
f 45 44 61 62
f 39 41 58 56
f 38 36 53 55
f 43 45 62 60
f 40 38 55 57
f 29 30 47 46
o Cube
v 8.652000 0.000000 0.000000
v 0.000000 0.000000 -0.000000
v 8.652000 8.400000 0.000001
v 6.550000 8.785500 0.000001
v 0.000000 13.468600 0.000001
v 4.970000 14.683000 0.000001
v 2.182800 17.175400 0.000001
v 5.151400 16.080000 0.000001
v 5.300000 18.000000 0.000001
v 5.842113 16.379957 0.000001
v 5.716520 18.069550 0.000001
v 6.130000 16.488600 0.000001
v 5.928800 18.010900 0.000001
v 6.313500 16.680000 0.000001
v 6.213900 17.821100 0.000001
v 6.477000 17.191299 0.000001
v 6.406400 17.538700 0.000001
v 8.652000 0.000000 -0.200001
v 0.000000 0.000000 -0.200001
v 8.652000 8.400000 -0.200000
v 6.550000 8.785500 -0.200000
v -0.000000 13.468600 -0.200000
v 4.970000 14.683000 -0.200000
v 2.182800 17.175400 -0.200000
v 5.151400 16.080000 -0.200000
v 5.300000 18.000000 -0.200000
v 5.842113 16.379957 -0.200000
v 5.716520 18.069550 -0.200000
v 6.130000 16.488600 -0.200000
v 5.928800 18.010900 -0.200000
v 6.313500 16.680000 -0.200000
v 6.213900 17.821100 -0.200000
v 6.477000 17.191299 -0.200000
v 6.406400 17.538700 -0.200000
usemtl 01
s off
f 65 64 63
f 65 66 64
f 67 64 66
f 68 67 66
f 67 68 69
f 70 69 68
f 69 70 71
f 72 71 70
f 71 72 73
f 72 74 75 73
f 74 76 77 75
f 76 78 79 77
f 82 80 81
f 82 81 83
f 84 83 81
f 85 83 84
f 84 86 85
f 87 85 86
f 86 88 87
f 89 87 88
f 88 90 89
f 89 90 92 91
f 91 92 94 93
f 93 94 96 95
f 70 68 85 87
f 78 76 93 95
f 64 67 84 81
f 65 63 80 82
f 68 66 83 85
f 75 77 94 92
f 66 65 82 83
f 71 73 90 88
f 76 74 91 93
f 69 71 88 86
f 67 69 86 84
f 79 78 95 96
f 73 75 92 90
f 72 70 87 89
f 77 79 96 94
f 74 72 89 91
f 63 64 81 80
