# Blender v2.63 (sub 0) OBJ File: 'neogeomvs_cm.blend'
# www.blender.org
mtllib neogeomvs_cm.mtl
o Plane.002
v 4.738715 10.000000 -10.165741
v 1.568414 10.000000 -10.165741
v 4.738715 0.000000 -10.165741
v 1.568414 0.000000 -10.165741
usemtl 
s off
f 2 1 3 4
o Plane.001
v 6.060742 10.000000 -8.289142
v 0.324127 10.000000 -8.289142
v 6.060742 0.000000 -8.289142
v 0.324127 0.000000 -8.289142
usemtl 
s off
f 6 5 7 8
o Plane
v 0.200000 10.343358 -4.243342
v 6.220000 10.343358 -4.243342
v 6.220000 20.778259 -8.099596
v 0.200000 20.778259 -8.099596
v 6.220000 20.778259 -9.141469
v 0.200000 20.778259 -9.141469
v 6.108320 17.079912 -9.141469
v 0.200000 17.079912 -9.141469
v 6.220000 17.079912 -9.141469
v 0.200000 17.079912 -9.141469
v 6.220000 17.079912 -6.143345
v 0.200000 17.079912 -6.143345
v 6.220000 11.431704 -7.625399
v 0.200000 11.431704 -7.625399
v 6.220000 11.001238 -10.994300
v 0.200000 11.001238 -10.994300
v 6.220000 10.435749 -10.949442
v 0.200000 10.435749 -10.949442
v 6.220000 10.435749 -10.579407
v 0.200000 10.435749 -10.579407
v 6.220000 9.541107 -10.579407
v 0.200000 9.541107 -10.579407
usemtl 
s off
f 9 10 21 22
f 13 14 12 11
f 15 16 14 13
f 17 18 16 15
f 19 20 18 17
f 21 22 20 19
f 23 24 22 21
f 25 26 24 23
f 27 28 26 25
f 29 30 28 27
o Cube.005
v 4.641767 0.000001 -4.795990
v 4.641767 0.000001 -10.254063
v 4.841767 0.000001 -10.254063
v 4.841767 0.000001 -4.795990
v 4.641767 10.284754 -4.795990
v 4.641767 10.284754 -10.254063
v 4.841767 10.284754 -10.254063
v 4.841767 10.284754 -4.795990
usemtl 
s off
f 32 31 35 36
f 36 37 33 32
f 37 38 34 33
f 31 34 38 35
f 31 32 33 34
f 38 37 36 35
o Cube.004
v 1.500000 0.000001 -4.795990
v 1.500000 0.000001 -10.254063
v 1.700000 0.000001 -10.254063
v 1.700000 0.000001 -4.795990
v 1.500000 10.284754 -4.795990
v 1.500000 10.284754 -10.254063
v 1.700000 10.284754 -10.254063
v 1.700000 10.284754 -4.795990
usemtl 
s off
f 40 39 43 44
f 44 45 41 40
f 45 46 42 41
f 39 42 46 43
f 39 40 41 42
f 46 45 44 43
o Cube.003
v 6.000000 0.000001 -3.001575
v 6.000000 0.000001 -8.459648
v 6.220000 0.000001 -8.459648
v 6.220000 0.000001 -3.001575
v 6.000000 10.284754 -3.001574
v 6.000000 10.284754 -8.459647
v 6.220000 10.284754 -8.459647
v 6.220000 10.284754 -3.001574
usemtl 
s off
f 48 47 51 52
f 52 53 49 48
f 53 54 50 49
f 47 50 54 51
f 47 48 49 50
f 54 53 52 51
o Cube.002_Cube
v 0.200000 0.000001 -3.012914
v 0.200000 0.000001 -8.470987
v 0.400000 0.000001 -8.470987
v 0.400000 0.000001 -3.012914
v 0.200000 10.284754 -3.012913
v 0.200000 10.284754 -8.470986
v 0.400000 10.284754 -8.470986
v 0.400000 10.284754 -3.012913
usemtl 
s off
f 56 55 59 60
f 60 61 57 56
f 61 62 58 57
f 55 58 62 59
f 55 56 57 58
f 62 61 60 59
o Cube.001_Cube.002
v 6.220000 9.158440 -2.899614
v 6.220000 9.158440 -8.949615
v 6.220000 15.833441 -7.449615
v 6.220000 15.833441 -1.999615
v 6.220000 9.508440 -10.799615
v 6.220000 11.383440 -8.849615
v 6.220000 11.383440 -1.999615
v 6.220000 11.083441 -11.149614
v 6.220000 20.883440 -8.099615
v 6.220000 16.833441 -8.849615
v 6.220000 20.883440 -9.224615
v 6.220000 16.833439 -9.224615
v 6.420000 9.158440 -2.899614
v 6.420000 9.158440 -8.949615
v 6.420000 15.833441 -7.449615
v 6.420000 15.833441 -1.999615
v 6.420000 9.508440 -10.799615
v 6.420000 11.383440 -8.849615
v 6.420000 11.383440 -1.999615
v 6.420000 11.083441 -11.149614
v 6.420000 20.883440 -8.099615
v 6.420000 16.833441 -8.849615
v 6.420000 20.883440 -9.224615
v 6.420000 16.833439 -9.224615
usemtl 
s off
f 63 64 68
f 64 67 68
f 68 67 70
f 69 63 68
f 69 68 66
f 68 65 66
f 71 66 65
f 72 71 65
f 71 72 73
f 74 73 72
f 75 80 76
f 76 80 79
f 80 82 79
f 81 80 75
f 81 78 80
f 80 78 77
f 83 77 78
f 84 77 83
f 83 85 84
f 86 84 85
f 63 69 81 75
f 64 63 75 76
f 71 73 85 83
f 84 86 74 72
f 66 71 83 78
f 70 67 79 82
f 80 77 65 68
f 73 74 86 85
f 77 84 72 65
f 68 70 82 80
f 76 79 67 64
f 69 66 78 81
o Cube_Cube.001
v 0.000000 9.158440 -2.899614
v 0.000000 9.158440 -8.949615
v 0.000000 15.833441 -7.449615
v 0.000000 15.833441 -1.999615
v 0.000000 9.508440 -10.799615
v 0.000000 11.383440 -8.849615
v 0.000000 11.383440 -1.999615
v 0.000000 11.083441 -11.149614
v 0.000000 20.883440 -8.099615
v 0.000000 16.833441 -8.849615
v 0.000000 20.883440 -9.224615
v 0.000000 16.833439 -9.224615
v 0.200000 9.158440 -2.899614
v 0.200000 9.158440 -8.949615
v 0.200000 15.833441 -7.449615
v 0.200000 15.833441 -1.999615
v 0.200000 9.508440 -10.799615
v 0.200000 11.383440 -8.849615
v 0.200000 11.383440 -1.999615
v 0.200000 11.083441 -11.149614
v 0.200000 20.883440 -8.099615
v 0.200000 16.833441 -8.849615
v 0.200000 20.883440 -9.224615
v 0.200000 16.833439 -9.224615
usemtl 
s off
f 87 88 92
f 88 91 92
f 92 91 94
f 93 87 92
f 93 92 90
f 92 89 90
f 95 90 89
f 96 95 89
f 95 96 97
f 98 97 96
f 99 104 100
f 100 104 103
f 104 106 103
f 105 104 99
f 105 102 104
f 104 102 101
f 107 101 102
f 108 101 107
f 107 109 108
f 110 108 109
f 87 93 105 99
f 88 87 99 100
f 95 97 109 107
f 108 110 98 96
f 90 95 107 102
f 94 91 103 106
f 104 101 89 92
f 97 98 110 109
f 101 108 96 89
f 92 94 106 104
f 100 103 91 88
f 93 90 102 105
