# Blender v2.66 (sub 1) OBJ File: 'pacman_cm.blend'
# www.blender.org
mtllib pacman_cm.mtl
o Plane.001
v 6.497900 9.841000 -0.200000
v 1.336000 11.294600 -0.200000
v 6.497900 9.841000 -6.000002
v 1.336000 11.294600 -6.000002
usemtl k
s off
f 2 1 3 4
o Plane
v 6.497900 9.841000 -5.999999
v 8.053100 9.409400 -6.000003
v 7.676100 0.000000 -5.999999
v 7.676099 8.149400 -5.999999
v 1.336000 11.294600 -5.999999
v 2.179400 14.340600 -5.999999
v 6.222300 14.340600 -5.999999
v 6.222300 16.855499 -5.999999
v 6.497900 9.841000 -0.199999
v 8.053100 9.409400 -0.200003
v 7.676100 0.000000 -0.199999
v 7.676099 8.149400 -0.199999
v 1.336000 11.294600 -0.199999
v 2.179400 14.340600 -0.199999
v 6.222300 14.340600 -0.199999
v 6.222300 16.855499 -0.199999
usemtl y
s off
f 10 9 17 18
f 12 11 19 20
f 8 7 15 16
f 6 8 16 14
f 11 10 18 19
f 5 6 14 13
o Cube.001
v 8.040000 7.135100 -6.000000
v 7.989000 0.000000 -6.000000
v 0.000000 0.000000 -6.000000
v 0.000000 16.381001 -6.000000
v 2.746000 17.016300 -6.000000
v 8.000000 6.000000 -6.000000
v 7.190400 11.808200 -6.000000
v 6.393700 16.615499 -6.000000
v 3.981900 17.073000 -6.000000
v 1.751900 16.895201 -6.000000
v 8.171900 7.954200 -6.000000
v 8.319000 9.211300 -6.000000
v 8.352600 8.660100 -6.000000
v 8.393800 8.796900 -6.000000
v 8.403100 8.940600 -6.000000
v 8.387500 9.081200 -6.000000
v 6.395400 15.757400 -6.000000
v 6.476700 14.906500 -6.000000
v 6.607200 13.993000 -6.000000
v 6.821000 12.996400 -6.000000
v 0.918600 16.731199 -6.000000
v 0.164700 16.546000 -6.000000
v 0.045800 16.489201 -6.000000
v 5.087100 17.022900 -6.000000
v 6.192400 16.879000 -6.000000
v 6.358000 16.776100 -6.000000
v 8.040000 7.135100 -6.200000
v 7.989000 0.000000 -6.200000
v 0.000000 0.000000 -6.200000
v 0.000000 16.381001 -6.200000
v 2.746000 17.016300 -6.200000
v 8.000000 6.000000 -6.200000
v 7.190400 11.808200 -6.200000
v 6.393700 16.615499 -6.200000
v 3.981900 17.073000 -6.200000
v 1.751900 16.895201 -6.200000
v 8.171900 7.954200 -6.200000
v 8.319000 9.211300 -6.200000
v 8.352600 8.660100 -6.200000
v 8.393800 8.796900 -6.200000
v 8.403100 8.940600 -6.200000
v 8.387500 9.081200 -6.200000
v 6.395400 15.757400 -6.200000
v 6.476700 14.906500 -6.200000
v 6.607200 13.993000 -6.200000
v 6.821000 12.996400 -6.200000
v 0.918600 16.731199 -6.200000
v 0.164700 16.546000 -6.200000
v 0.045800 16.489201 -6.200000
v 5.087100 17.022900 -6.200000
v 6.192400 16.879000 -6.200000
v 6.358000 16.776100 -6.200000
usemtl y
s off
f 26 23 22
f 27 23 26
f 24 23 27
f 28 24 37
f 25 24 28
f 26 21 27
f 29 25 28
f 30 24 25
f 27 21 31
f 27 31 32
f 33 32 31
f 32 33 34
f 32 34 35
f 32 35 36
f 38 37 24
f 39 38 24
f 40 39 24
f 40 24 27
f 24 30 41
f 24 41 42
f 24 42 43
f 44 29 28
f 45 44 28
f 46 45 28
f 52 48 49
f 53 52 49
f 50 53 49
f 54 63 50
f 51 54 50
f 52 53 47
f 55 54 51
f 56 51 50
f 53 57 47
f 53 58 57
f 59 57 58
f 58 60 59
f 58 61 60
f 58 62 61
f 64 50 63
f 65 50 64
f 66 50 65
f 66 53 50
f 50 67 56
f 50 68 67
f 50 69 68
f 70 54 55
f 71 54 70
f 72 54 71
f 28 37 63 54
f 41 30 56 67
f 39 40 66 65
f 32 36 62 58
f 35 34 60 61
f 33 31 57 59
f 46 28 54 72
f 44 45 71 70
f 24 43 69 50
f 42 41 67 68
f 26 22 48 52
f 40 27 53 66
f 37 38 64 63
f 36 35 61 62
f 30 25 51 56
f 45 46 72 71
f 21 26 52 47
f 43 42 68 69
f 22 23 49 48
f 38 39 65 64
f 34 33 59 60
f 27 32 58 53
f 31 21 47 57
f 25 29 55 51
f 23 24 50 49
f 29 44 70 55
o Cube
v 8.040000 7.135100 0.000000
v 7.989000 0.000000 0.000000
v 0.000000 0.000000 0.000000
v 0.000000 16.381001 0.000000
v 2.746000 17.016300 0.000000
v 8.000000 6.000000 0.000000
v 7.190400 11.808200 0.000000
v 6.393700 16.615499 0.000000
v 3.981900 17.073000 0.000000
v 1.751900 16.895201 0.000000
v 8.171900 7.954200 0.000000
v 8.319000 9.211300 0.000000
v 8.352600 8.660100 0.000000
v 8.393800 8.796900 0.000000
v 8.403100 8.940600 0.000000
v 8.387500 9.081200 0.000000
v 6.395400 15.757400 0.000000
v 6.476700 14.906500 0.000000
v 6.607200 13.993000 0.000000
v 6.821000 12.996400 0.000000
v 0.918600 16.731199 0.000000
v 0.164700 16.546000 0.000000
v 0.045800 16.489201 0.000000
v 5.087100 17.022900 0.000000
v 6.192400 16.879000 0.000000
v 6.358000 16.776100 0.000000
v 8.040000 7.135100 -0.200000
v 7.989000 0.000000 -0.200000
v 0.000000 0.000000 -0.200000
v 0.000000 16.381001 -0.200000
v 2.746000 17.016300 -0.200000
v 8.000000 6.000000 -0.200000
v 7.190400 11.808200 -0.200000
v 6.393700 16.615499 -0.200000
v 3.981900 17.073000 -0.200000
v 1.751900 16.895201 -0.200000
v 8.171900 7.954200 -0.200000
v 8.319000 9.211300 -0.200000
v 8.352600 8.660100 -0.200000
v 8.393800 8.796900 -0.200000
v 8.403100 8.940600 -0.200000
v 8.387500 9.081200 -0.200000
v 6.395400 15.757400 -0.200000
v 6.476700 14.906500 -0.200000
v 6.607200 13.993000 -0.200000
v 6.821000 12.996400 -0.200000
v 0.918600 16.731199 -0.200000
v 0.164700 16.546000 -0.200000
v 0.045800 16.489201 -0.200000
v 5.087100 17.022900 -0.200000
v 6.192400 16.879000 -0.200000
v 6.358000 16.776100 -0.200000
usemtl y
s off
f 78 75 74
f 79 75 78
f 76 75 79
f 80 76 89
f 77 76 80
f 78 73 79
f 81 77 80
f 82 76 77
f 79 73 83
f 79 83 84
f 85 84 83
f 84 85 86
f 84 86 87
f 84 87 88
f 90 89 76
f 91 90 76
f 92 91 76
f 92 76 79
f 76 82 93
f 76 93 94
f 76 94 95
f 96 81 80
f 97 96 80
f 98 97 80
f 104 100 101
f 105 104 101
f 102 105 101
f 106 115 102
f 103 106 102
f 104 105 99
f 107 106 103
f 108 103 102
f 105 109 99
f 105 110 109
f 111 109 110
f 110 112 111
f 110 113 112
f 110 114 113
f 116 102 115
f 117 102 116
f 118 102 117
f 118 105 102
f 102 119 108
f 102 120 119
f 102 121 120
f 122 106 107
f 123 106 122
f 124 106 123
f 80 89 115 106
f 93 82 108 119
f 91 92 118 117
f 84 88 114 110
f 87 86 112 113
f 85 83 109 111
f 98 80 106 124
f 96 97 123 122
f 76 95 121 102
f 94 93 119 120
f 78 74 100 104
f 92 79 105 118
f 89 90 116 115
f 88 87 113 114
f 82 77 103 108
f 97 98 124 123
f 73 78 104 99
f 95 94 120 121
f 74 75 101 100
f 90 91 117 116
f 86 85 111 112
f 79 84 110 105
f 83 73 99 109
f 77 81 107 103
f 75 76 102 101
f 81 96 122 107
